TRACE.vcd
$var reg 	1 !	RegisterFile.storeenable  $end
$var reg 	32 "	RegisterFile.adr2  $end
$var reg 	32 #	RegisterFile.adr3  $end
$var reg 	32 $	RegisterFile.adr4  $end
$var reg 	32 %	RegisterFile.adr5  $end
$var reg 	32 &	RegisterFile.adr6  $end
$var reg 	32 '	RegisterFile.adr7  $end
$var reg 	32 (	RegisterFile.adr8  $end
$enddefinitions $end 
$enddefinitions $end 
#1
b1 !
b00000000000000000000000000000000 "
b00000000000000000000000000000000 #
b00000000000000000000000000000000 $
b00000000000000000000000000000000 %
b00000000000000000000000000000000 &
b00000000000000000000000000000000 '
b00000000000000000000000000000000 (
#4
b1 !
b00000000000000000000000000000110 "
b00000000000000000000000000000000 #
b00000000000000000000000000000000 $
b00000000000000000000000000000000 %
b00000000000000000000000000000000 &
b00000000000000000000000000000000 '
b00000000000000000000000000000000 (
#6
b1 !
b00000000000000000000000000000110 "
b00000000000000000000000000000000 #
b11111111111111111111111111100010 $
b00000000000000000000000000000000 %
b00000000000000000000000000000000 &
b00000000000000000000000000000000 '
b00000000000000000000000000000000 (
#7
b1 !
b00000000000000000000000000000110 "
b00000000000000000000000000000000 #
b00000000000000000000000000000110 $
b00000000000000000000000000000000 %
b00000000000000000000000000000000 &
b00000000000000000000000000000000 '
b00000000000000000000000000000000 (
#8
b1 !
b00000000000000000000000000000110 "
b00000000000000000000000000000000 #
b00000000000000000000000000000110 $
b00000000000000000000000000000110 %
b00000000000000000000000000000000 &
b00000000000000000000000000000000 '
b00000000000000000000000000000000 (
#9
b1 !
b00000000000000000000000000000110 "
b00000000000000000000000000000000 #
b00000000000000000000000000000110 $
b00000000000000000000000000000000 %
b00000000000000000000000000000000 &
b00000000000000000000000000000000 '
b00000000000000000000000000000000 (
#10
b0 !
b00000000000000000000000000000110 "
b00000000000000000000000000000000 #
b00000000000000000000000000000110 $
b00000000000000000000000000000000 %
b00000000000000000000000000000000 &
b00000000000000000000000000000000 '
b00000000000000000000000000000000 (
#12
b1 !
b00000000000000000000000000000110 "
b00000000000000000000000000000000 #
b00000000000000000000000000000110 $
b00000000000000000000000000000000 %
b00000000000000000000000000000000 &
b00000000000000000000000000000000 '
b00000000000000000000000000000000 (
#13
b0 !
b00000000000000000000000000000110 "
b00000000000000000000000000000000 #
b00000000000000000000000000000110 $
b00000000000000000000000000000000 %
b00000000000000000000000000000001 &
b00000000000000000000000000000000 '
b00000000000000000000000000000000 (
#15
b1 !
b00000000000000000000000000000110 "
b00000000000000000000000000000000 #
b00000000000000000000000000000110 $
b00000000000000000000000000000000 %
b00000000000000000000000000000001 &
b00000000000000000000000000000000 '
b00000000000000000000000000000000 (
#16
b0 !
b00000000000000000000000000000110 "
b00000000000000000000000000000001 #
b00000000000000000000000000000110 $
b00000000000000000000000000000000 %
b00000000000000000000000000000001 &
b00000000000000000000000000000000 '
b00000000000000000000000000000000 (
#18
b1 !
b00000000000000000000000000000110 "
b00000000000000000000000000000001 #
b00000000000000000000000000000110 $
b00000000000000000000000000000000 %
b00000000000000000000000000000001 &
b00000000000000000000000000000000 '
b00000000000000000000000000000000 (
#22
b1 !
b00000000000000000000000000000110 "
b00000000000000000000000000000001 #
b11111111111111111111111111100011 $
b00000000000000000000000000000000 %
b00000000000000000000000000000001 &
b00000000000000000000000000000000 '
b00000000000000000000000000000000 (
#23
b1 !
b00000000000000000000000000000110 "
b00000000000000000000000000000001 #
b00000000000000000000000000000110 $
b00000000000000000000000000000000 %
b00000000000000000000000000000001 &
b00000000000000000000000000000000 '
b00000000000000000000000000000000 (
#24
b1 !
b00000000000000000000000000000110 "
b00000000000000000000000000000001 #
b00000000000000000000000000000110 $
b00000000000000000000000000000110 %
b00000000000000000000000000000001 &
b00000000000000000000000000000000 '
b00000000000000000000000000000000 (
#25
b1 !
b00000000000000000000000000000110 "
b00000000000000000000000000000001 #
b00000000000000000000000000000110 $
b00000000000000000000000000000000 %
b00000000000000000000000000000001 &
b00000000000000000000000000000000 '
b00000000000000000000000000000000 (
#26
b0 !
b00000000000000000000000000000110 "
b00000000000000000000000000000001 #
b00000000000000000000000000000110 $
b00000000000000000000000000000000 %
b00000000000000000000000000000001 &
b00000000000000000000000000000000 '
b00000000000000000000000000000000 (
#28
b1 !
b00000000000000000000000000000110 "
b00000000000000000000000000000001 #
b00000000000000000000000000000110 $
b00000000000000000000000000000000 %
b00000000000000000000000000000001 &
b00000000000000000000000000000000 '
b00000000000000000000000000000000 (
#29
b0 !
b00000000000000000000000000000110 "
b00000000000000000000000000000001 #
b00000000000000000000000000000110 $
b00000000000000000000000000000000 %
b00000000000000000000000000000010 &
b00000000000000000000000000000000 '
b00000000000000000000000000000000 (
#31
b1 !
b00000000000000000000000000000110 "
b00000000000000000000000000000001 #
b00000000000000000000000000000110 $
b00000000000000000000000000000000 %
b00000000000000000000000000000010 &
b00000000000000000000000000000000 '
b00000000000000000000000000000000 (
#32
b0 !
b00000000000000000000000000000110 "
b00000000000000000000000000000010 #
b00000000000000000000000000000110 $
b00000000000000000000000000000000 %
b00000000000000000000000000000010 &
b00000000000000000000000000000000 '
b00000000000000000000000000000000 (
#34
b1 !
b00000000000000000000000000000110 "
b00000000000000000000000000000010 #
b00000000000000000000000000000110 $
b00000000000000000000000000000000 %
b00000000000000000000000000000010 &
b00000000000000000000000000000000 '
b00000000000000000000000000000000 (
#38
b1 !
b00000000000000000000000000000110 "
b00000000000000000000000000000010 #
b11111111111111111111111111100100 $
b00000000000000000000000000000000 %
b00000000000000000000000000000010 &
b00000000000000000000000000000000 '
b00000000000000000000000000000000 (
#39
b1 !
b00000000000000000000000000000110 "
b00000000000000000000000000000010 #
b00000000000000000000000000000110 $
b00000000000000000000000000000000 %
b00000000000000000000000000000010 &
b00000000000000000000000000000000 '
b00000000000000000000000000000000 (
#40
b1 !
b00000000000000000000000000000110 "
b00000000000000000000000000000010 #
b00000000000000000000000000000110 $
b00000000000000000000000000000110 %
b00000000000000000000000000000010 &
b00000000000000000000000000000000 '
b00000000000000000000000000000000 (
#41
b1 !
b00000000000000000000000000000110 "
b00000000000000000000000000000010 #
b00000000000000000000000000000110 $
b00000000000000000000000000000000 %
b00000000000000000000000000000010 &
b00000000000000000000000000000000 '
b00000000000000000000000000000000 (
#42
b0 !
b00000000000000000000000000000110 "
b00000000000000000000000000000010 #
b00000000000000000000000000000110 $
b00000000000000000000000000000000 %
b00000000000000000000000000000010 &
b00000000000000000000000000000000 '
b00000000000000000000000000000000 (
#44
b1 !
b00000000000000000000000000000110 "
b00000000000000000000000000000010 #
b00000000000000000000000000000110 $
b00000000000000000000000000000000 %
b00000000000000000000000000000010 &
b00000000000000000000000000000000 '
b00000000000000000000000000000000 (
#45
b0 !
b00000000000000000000000000000110 "
b00000000000000000000000000000010 #
b00000000000000000000000000000110 $
b00000000000000000000000000000000 %
b00000000000000000000000000000011 &
b00000000000000000000000000000000 '
b00000000000000000000000000000000 (
#47
b1 !
b00000000000000000000000000000110 "
b00000000000000000000000000000010 #
b00000000000000000000000000000110 $
b00000000000000000000000000000000 %
b00000000000000000000000000000011 &
b00000000000000000000000000000000 '
b00000000000000000000000000000000 (
#48
b0 !
b00000000000000000000000000000110 "
b00000000000000000000000000000011 #
b00000000000000000000000000000110 $
b00000000000000000000000000000000 %
b00000000000000000000000000000011 &
b00000000000000000000000000000000 '
b00000000000000000000000000000000 (
#50
b1 !
b00000000000000000000000000000110 "
b00000000000000000000000000000011 #
b00000000000000000000000000000110 $
b00000000000000000000000000000000 %
b00000000000000000000000000000011 &
b00000000000000000000000000000000 '
b00000000000000000000000000000000 (
#54
b1 !
b00000000000000000000000000000110 "
b00000000000000000000000000000011 #
b11111111111111111111111111100101 $
b00000000000000000000000000000000 %
b00000000000000000000000000000011 &
b00000000000000000000000000000000 '
b00000000000000000000000000000000 (
#55
b1 !
b00000000000000000000000000000110 "
b00000000000000000000000000000011 #
b00000000000000000000000000000110 $
b00000000000000000000000000000000 %
b00000000000000000000000000000011 &
b00000000000000000000000000000000 '
b00000000000000000000000000000000 (
#56
b1 !
b00000000000000000000000000000110 "
b00000000000000000000000000000011 #
b00000000000000000000000000000110 $
b00000000000000000000000000000110 %
b00000000000000000000000000000011 &
b00000000000000000000000000000000 '
b00000000000000000000000000000000 (
#57
b1 !
b00000000000000000000000000000110 "
b00000000000000000000000000000011 #
b00000000000000000000000000000110 $
b00000000000000000000000000000000 %
b00000000000000000000000000000011 &
b00000000000000000000000000000000 '
b00000000000000000000000000000000 (
#58
b0 !
b00000000000000000000000000000110 "
b00000000000000000000000000000011 #
b00000000000000000000000000000110 $
b00000000000000000000000000000000 %
b00000000000000000000000000000011 &
b00000000000000000000000000000000 '
b00000000000000000000000000000000 (
#60
b1 !
b00000000000000000000000000000110 "
b00000000000000000000000000000011 #
b00000000000000000000000000000110 $
b00000000000000000000000000000000 %
b00000000000000000000000000000011 &
b00000000000000000000000000000000 '
b00000000000000000000000000000000 (
#61
b0 !
b00000000000000000000000000000110 "
b00000000000000000000000000000011 #
b00000000000000000000000000000110 $
b00000000000000000000000000000000 %
b00000000000000000000000000000100 &
b00000000000000000000000000000000 '
b00000000000000000000000000000000 (
#63
b1 !
b00000000000000000000000000000110 "
b00000000000000000000000000000011 #
b00000000000000000000000000000110 $
b00000000000000000000000000000000 %
b00000000000000000000000000000100 &
b00000000000000000000000000000000 '
b00000000000000000000000000000000 (
#64
b0 !
b00000000000000000000000000000110 "
b00000000000000000000000000000100 #
b00000000000000000000000000000110 $
b00000000000000000000000000000000 %
b00000000000000000000000000000100 &
b00000000000000000000000000000000 '
b00000000000000000000000000000000 (
#66
b1 !
b00000000000000000000000000000110 "
b00000000000000000000000000000100 #
b00000000000000000000000000000110 $
b00000000000000000000000000000000 %
b00000000000000000000000000000100 &
b00000000000000000000000000000000 '
b00000000000000000000000000000000 (
#70
b1 !
b00000000000000000000000000000110 "
b00000000000000000000000000000100 #
b11111111111111111111111111100110 $
b00000000000000000000000000000000 %
b00000000000000000000000000000100 &
b00000000000000000000000000000000 '
b00000000000000000000000000000000 (
#71
b1 !
b00000000000000000000000000000110 "
b00000000000000000000000000000100 #
b00000000000000000000000000000110 $
b00000000000000000000000000000000 %
b00000000000000000000000000000100 &
b00000000000000000000000000000000 '
b00000000000000000000000000000000 (
#72
b1 !
b00000000000000000000000000000110 "
b00000000000000000000000000000100 #
b00000000000000000000000000000110 $
b00000000000000000000000000000110 %
b00000000000000000000000000000100 &
b00000000000000000000000000000000 '
b00000000000000000000000000000000 (
#73
b1 !
b00000000000000000000000000000110 "
b00000000000000000000000000000100 #
b00000000000000000000000000000110 $
b00000000000000000000000000000000 %
b00000000000000000000000000000100 &
b00000000000000000000000000000000 '
b00000000000000000000000000000000 (
#74
b0 !
b00000000000000000000000000000110 "
b00000000000000000000000000000100 #
b00000000000000000000000000000110 $
b00000000000000000000000000000000 %
b00000000000000000000000000000100 &
b00000000000000000000000000000000 '
b00000000000000000000000000000000 (
#76
b1 !
b00000000000000000000000000000110 "
b00000000000000000000000000000100 #
b00000000000000000000000000000110 $
b00000000000000000000000000000000 %
b00000000000000000000000000000100 &
b00000000000000000000000000000000 '
b00000000000000000000000000000000 (
#77
b0 !
b00000000000000000000000000000110 "
b00000000000000000000000000000100 #
b00000000000000000000000000000110 $
b00000000000000000000000000000000 %
b00000000000000000000000000000101 &
b00000000000000000000000000000000 '
b00000000000000000000000000000000 (
#79
b1 !
b00000000000000000000000000000110 "
b00000000000000000000000000000100 #
b00000000000000000000000000000110 $
b00000000000000000000000000000000 %
b00000000000000000000000000000101 &
b00000000000000000000000000000000 '
b00000000000000000000000000000000 (
#80
b0 !
b00000000000000000000000000000110 "
b00000000000000000000000000000101 #
b00000000000000000000000000000110 $
b00000000000000000000000000000000 %
b00000000000000000000000000000101 &
b00000000000000000000000000000000 '
b00000000000000000000000000000000 (
#82
b1 !
b00000000000000000000000000000110 "
b00000000000000000000000000000101 #
b00000000000000000000000000000110 $
b00000000000000000000000000000000 %
b00000000000000000000000000000101 &
b00000000000000000000000000000000 '
b00000000000000000000000000000000 (
#86
b1 !
b00000000000000000000000000000110 "
b00000000000000000000000000000101 #
b11111111111111111111111111100111 $
b00000000000000000000000000000000 %
b00000000000000000000000000000101 &
b00000000000000000000000000000000 '
b00000000000000000000000000000000 (
#87
b1 !
b00000000000000000000000000000110 "
b00000000000000000000000000000101 #
b00000000000000000000000000000110 $
b00000000000000000000000000000000 %
b00000000000000000000000000000101 &
b00000000000000000000000000000000 '
b00000000000000000000000000000000 (
#88
b1 !
b00000000000000000000000000000110 "
b00000000000000000000000000000101 #
b00000000000000000000000000000110 $
b00000000000000000000000000000110 %
b00000000000000000000000000000101 &
b00000000000000000000000000000000 '
b00000000000000000000000000000000 (
#89
b1 !
b00000000000000000000000000000110 "
b00000000000000000000000000000101 #
b00000000000000000000000000000110 $
b00000000000000000000000000000000 %
b00000000000000000000000000000101 &
b00000000000000000000000000000000 '
b00000000000000000000000000000000 (
#90
b0 !
b00000000000000000000000000000110 "
b00000000000000000000000000000101 #
b00000000000000000000000000000110 $
b00000000000000000000000000000000 %
b00000000000000000000000000000101 &
b00000000000000000000000000000000 '
b00000000000000000000000000000000 (
#92
b1 !
b00000000000000000000000000000110 "
b00000000000000000000000000000101 #
b00000000000000000000000000000110 $
b00000000000000000000000000000000 %
b00000000000000000000000000000101 &
b00000000000000000000000000000000 '
b00000000000000000000000000000000 (
#93
b0 !
b00000000000000000000000000000110 "
b00000000000000000000000000000101 #
b00000000000000000000000000000110 $
b00000000000000000000000000000000 %
b00000000000000000000000000000110 &
b00000000000000000000000000000000 '
b00000000000000000000000000000000 (
#95
b1 !
b00000000000000000000000000000110 "
b00000000000000000000000000000101 #
b00000000000000000000000000000110 $
b00000000000000000000000000000000 %
b00000000000000000000000000000110 &
b00000000000000000000000000000000 '
b00000000000000000000000000000000 (
#96
b0 !
b00000000000000000000000000000110 "
b00000000000000000000000000000110 #
b00000000000000000000000000000110 $
b00000000000000000000000000000000 %
b00000000000000000000000000000110 &
b00000000000000000000000000000000 '
b00000000000000000000000000000000 (
#98
b1 !
b00000000000000000000000000000110 "
b00000000000000000000000000000110 #
b00000000000000000000000000000110 $
b00000000000000000000000000000000 %
b00000000000000000000000000000110 &
b00000000000000000000000000000000 '
b00000000000000000000000000000000 (
#102
b1 !
b00000000000000000000000000000110 "
b00000000000000000000000000000110 #
b11111111111111111111111111101000 $
b00000000000000000000000000000000 %
b00000000000000000000000000000110 &
b00000000000000000000000000000000 '
b00000000000000000000000000000000 (
#103
b1 !
b00000000000000000000000000000110 "
b00000000000000000000000000000110 #
b00000000000000000000000000000110 $
b00000000000000000000000000000000 %
b00000000000000000000000000000110 &
b00000000000000000000000000000000 '
b00000000000000000000000000000000 (
#104
b1 !
b00000000000000000000000000000110 "
b00000000000000000000000000000110 #
b00000000000000000000000000000110 $
b00000000000000000000000000000110 %
b00000000000000000000000000000110 &
b00000000000000000000000000000000 '
b00000000000000000000000000000000 (
#105
b1 !
b00000000000000000000000000000110 "
b00000000000000000000000000000110 #
b00000000000000000000000000000110 $
b00000000000000000000000000000000 %
b00000000000000000000000000000110 &
b00000000000000000000000000000000 '
b00000000000000000000000000000000 (
#106
b0 !
b00000000000000000000000000000110 "
b00000000000000000000000000000110 #
b00000000000000000000000000000110 $
b00000000000000000000000000000000 %
b00000000000000000000000000000110 &
b00000000000000000000000000000000 '
b00000000000000000000000000000000 (
#108
b1 !
b00000000000000000000000000000110 "
b00000000000000000000000000000110 #
b00000000000000000000000000000110 $
b00000000000000000000000000000000 %
b00000000000000000000000000000110 &
b00000000000000000000000000000000 '
b00000000000000000000000000000000 (
#109
b0 !
b00000000000000000000000000000110 "
b00000000000000000000000000000110 #
b00000000000000000000000000000110 $
b00000000000000000000000000000000 %
b00000000000000000000000000000111 &
b00000000000000000000000000000000 '
b00000000000000000000000000000000 (
#111
b1 !
b00000000000000000000000000000110 "
b00000000000000000000000000000110 #
b00000000000000000000000000000110 $
b00000000000000000000000000000000 %
b00000000000000000000000000000111 &
b00000000000000000000000000000000 '
b00000000000000000000000000000000 (
#112
b0 !
b00000000000000000000000000000110 "
b00000000000000000000000000000111 #
b00000000000000000000000000000110 $
b00000000000000000000000000000000 %
b00000000000000000000000000000111 &
b00000000000000000000000000000000 '
b00000000000000000000000000000000 (
#114
b1 !
b00000000000000000000000000000110 "
b00000000000000000000000000000111 #
b00000000000000000000000000000110 $
b00000000000000000000000000000000 %
b00000000000000000000000000000111 &
b00000000000000000000000000000000 '
b00000000000000000000000000000000 (
#118
b1 !
b00000000000000000000000000000110 "
b00000000000000000000000000000111 #
b11111111111111111111111111101001 $
b00000000000000000000000000000000 %
b00000000000000000000000000000111 &
b00000000000000000000000000000000 '
b00000000000000000000000000000000 (
#119
b1 !
b00000000000000000000000000000110 "
b00000000000000000000000000000111 #
b00000000000000000000000000000110 $
b00000000000000000000000000000000 %
b00000000000000000000000000000111 &
b00000000000000000000000000000000 '
b00000000000000000000000000000000 (
#120
b1 !
b00000000000000000000000000000110 "
b00000000000000000000000000000111 #
b00000000000000000000000000000110 $
b00000000000000000000000000000110 %
b00000000000000000000000000000111 &
b00000000000000000000000000000000 '
b00000000000000000000000000000000 (
#121
b1 !
b00000000000000000000000000000110 "
b00000000000000000000000000000111 #
b00000000000000000000000000000110 $
b00000000000000000000000000000000 %
b00000000000000000000000000000111 &
b00000000000000000000000000000000 '
b00000000000000000000000000000000 (
#122
b0 !
b00000000000000000000000000000110 "
b00000000000000000000000000000111 #
b00000000000000000000000000000110 $
b00000000000000000000000000000000 %
b00000000000000000000000000000111 &
b00000000000000000000000000000000 '
b00000000000000000000000000000000 (
#124
b1 !
b00000000000000000000000000000110 "
b00000000000000000000000000000111 #
b00000000000000000000000000000110 $
b00000000000000000000000000000000 %
b00000000000000000000000000000111 &
b00000000000000000000000000000000 '
b00000000000000000000000000000000 (
#125
b0 !
b00000000000000000000000000000110 "
b00000000000000000000000000000111 #
b00000000000000000000000000000110 $
b00000000000000000000000000000000 %
b00000000000000000000000000001000 &
b00000000000000000000000000000000 '
b00000000000000000000000000000000 (
#127
b1 !
b00000000000000000000000000000110 "
b00000000000000000000000000000111 #
b00000000000000000000000000000110 $
b00000000000000000000000000000000 %
b00000000000000000000000000001000 &
b00000000000000000000000000000000 '
b00000000000000000000000000000000 (
#128
b0 !
b00000000000000000000000000000110 "
b00000000000000000000000000001000 #
b00000000000000000000000000000110 $
b00000000000000000000000000000000 %
b00000000000000000000000000001000 &
b00000000000000000000000000000000 '
b00000000000000000000000000000000 (
#130
b1 !
b00000000000000000000000000000110 "
b00000000000000000000000000001000 #
b00000000000000000000000000000110 $
b00000000000000000000000000000000 %
b00000000000000000000000000001000 &
b00000000000000000000000000000000 '
b00000000000000000000000000000000 (
#134
b1 !
b00000000000000000000000000000110 "
b00000000000000000000000000001000 #
b11111111111111111111111111101010 $
b00000000000000000000000000000000 %
b00000000000000000000000000001000 &
b00000000000000000000000000000000 '
b00000000000000000000000000000000 (
#135
b1 !
b00000000000000000000000000000110 "
b00000000000000000000000000001000 #
b00000000000000000000000000000110 $
b00000000000000000000000000000000 %
b00000000000000000000000000001000 &
b00000000000000000000000000000000 '
b00000000000000000000000000000000 (
#136
b1 !
b00000000000000000000000000000110 "
b00000000000000000000000000001000 #
b00000000000000000000000000000110 $
b00000000000000000000000000000110 %
b00000000000000000000000000001000 &
b00000000000000000000000000000000 '
b00000000000000000000000000000000 (
#137
b1 !
b00000000000000000000000000000110 "
b00000000000000000000000000001000 #
b00000000000000000000000000000110 $
b00000000000000000000000000000000 %
b00000000000000000000000000001000 &
b00000000000000000000000000000000 '
b00000000000000000000000000000000 (
#138
b0 !
b00000000000000000000000000000110 "
b00000000000000000000000000001000 #
b00000000000000000000000000000110 $
b00000000000000000000000000000000 %
b00000000000000000000000000001000 &
b00000000000000000000000000000000 '
b00000000000000000000000000000000 (
#140
b1 !
b00000000000000000000000000000110 "
b00000000000000000000000000001000 #
b00000000000000000000000000000110 $
b00000000000000000000000000000000 %
b00000000000000000000000000001000 &
b00000000000000000000000000000000 '
b00000000000000000000000000000000 (
#141
b0 !
b00000000000000000000000000000110 "
b00000000000000000000000000001000 #
b00000000000000000000000000000110 $
b00000000000000000000000000000000 %
b00000000000000000000000000001001 &
b00000000000000000000000000000000 '
b00000000000000000000000000000000 (
#143
b1 !
b00000000000000000000000000000110 "
b00000000000000000000000000001000 #
b00000000000000000000000000000110 $
b00000000000000000000000000000000 %
b00000000000000000000000000001001 &
b00000000000000000000000000000000 '
b00000000000000000000000000000000 (
#144
b0 !
b00000000000000000000000000000110 "
b00000000000000000000000000001001 #
b00000000000000000000000000000110 $
b00000000000000000000000000000000 %
b00000000000000000000000000001001 &
b00000000000000000000000000000000 '
b00000000000000000000000000000000 (
#146
b1 !
b00000000000000000000000000000110 "
b00000000000000000000000000001001 #
b00000000000000000000000000000110 $
b00000000000000000000000000000000 %
b00000000000000000000000000001001 &
b00000000000000000000000000000000 '
b00000000000000000000000000000000 (
#150
b1 !
b00000000000000000000000000000110 "
b00000000000000000000000000001001 #
b11111111111111111111111111101011 $
b00000000000000000000000000000000 %
b00000000000000000000000000001001 &
b00000000000000000000000000000000 '
b00000000000000000000000000000000 (
#151
b1 !
b00000000000000000000000000000110 "
b00000000000000000000000000001001 #
b00000000000000000000000000000110 $
b00000000000000000000000000000000 %
b00000000000000000000000000001001 &
b00000000000000000000000000000000 '
b00000000000000000000000000000000 (
#152
b1 !
b00000000000000000000000000000110 "
b00000000000000000000000000001001 #
b00000000000000000000000000000110 $
b00000000000000000000000000000110 %
b00000000000000000000000000001001 &
b00000000000000000000000000000000 '
b00000000000000000000000000000000 (
#153
b1 !
b00000000000000000000000000000110 "
b00000000000000000000000000001001 #
b00000000000000000000000000000110 $
b00000000000000000000000000000000 %
b00000000000000000000000000001001 &
b00000000000000000000000000000000 '
b00000000000000000000000000000000 (
#154
b0 !
b00000000000000000000000000000110 "
b00000000000000000000000000001001 #
b00000000000000000000000000000110 $
b00000000000000000000000000000000 %
b00000000000000000000000000001001 &
b00000000000000000000000000000000 '
b00000000000000000000000000000000 (
#156
b1 !
b00000000000000000000000000000110 "
b00000000000000000000000000001001 #
b00000000000000000000000000000110 $
b00000000000000000000000000000000 %
b00000000000000000000000000001001 &
b00000000000000000000000000000000 '
b00000000000000000000000000000000 (
#157
b0 !
b00000000000000000000000000000110 "
b00000000000000000000000000001001 #
b00000000000000000000000000000110 $
b00000000000000000000000000000000 %
b00000000000000000000000000001010 &
b00000000000000000000000000000000 '
b00000000000000000000000000000000 (
#159
b1 !
b00000000000000000000000000000110 "
b00000000000000000000000000001001 #
b00000000000000000000000000000110 $
b00000000000000000000000000000000 %
b00000000000000000000000000001010 &
b00000000000000000000000000000000 '
b00000000000000000000000000000000 (
#160
b0 !
b00000000000000000000000000000110 "
b00000000000000000000000000001010 #
b00000000000000000000000000000110 $
b00000000000000000000000000000000 %
b00000000000000000000000000001010 &
b00000000000000000000000000000000 '
b00000000000000000000000000000000 (
#162
b1 !
b00000000000000000000000000000110 "
b00000000000000000000000000001010 #
b00000000000000000000000000000110 $
b00000000000000000000000000000000 %
b00000000000000000000000000001010 &
b00000000000000000000000000000000 '
b00000000000000000000000000000000 (
#166
b1 !
b00000000000000000000000000000110 "
b00000000000000000000000000001010 #
b11111111111111111111111111101100 $
b00000000000000000000000000000000 %
b00000000000000000000000000001010 &
b00000000000000000000000000000000 '
b00000000000000000000000000000000 (
#167
b1 !
b00000000000000000000000000000110 "
b00000000000000000000000000001010 #
b00000000000000000000000000000110 $
b00000000000000000000000000000000 %
b00000000000000000000000000001010 &
b00000000000000000000000000000000 '
b00000000000000000000000000000000 (
#168
b1 !
b00000000000000000000000000000110 "
b00000000000000000000000000001010 #
b00000000000000000000000000000110 $
b00000000000000000000000000000110 %
b00000000000000000000000000001010 &
b00000000000000000000000000000000 '
b00000000000000000000000000000000 (
#169
b1 !
b00000000000000000000000000000110 "
b00000000000000000000000000001010 #
b00000000000000000000000000000110 $
b00000000000000000000000000000000 %
b00000000000000000000000000001010 &
b00000000000000000000000000000000 '
b00000000000000000000000000000000 (
#170
b0 !
b00000000000000000000000000000110 "
b00000000000000000000000000001010 #
b00000000000000000000000000000110 $
b00000000000000000000000000000000 %
b00000000000000000000000000001010 &
b00000000000000000000000000000000 '
b00000000000000000000000000000000 (
#172
b1 !
b00000000000000000000000000000110 "
b00000000000000000000000000001010 #
b00000000000000000000000000000110 $
b00000000000000000000000000000000 %
b00000000000000000000000000001010 &
b00000000000000000000000000000000 '
b00000000000000000000000000000000 (
#173
b0 !
b00000000000000000000000000000110 "
b00000000000000000000000000001010 #
b00000000000000000000000000000110 $
b00000000000000000000000000000000 %
b00000000000000000000000000001011 &
b00000000000000000000000000000000 '
b00000000000000000000000000000000 (
#175
b1 !
b00000000000000000000000000000110 "
b00000000000000000000000000001010 #
b00000000000000000000000000000110 $
b00000000000000000000000000000000 %
b00000000000000000000000000001011 &
b00000000000000000000000000000000 '
b00000000000000000000000000000000 (
#176
b0 !
b00000000000000000000000000000110 "
b00000000000000000000000000001011 #
b00000000000000000000000000000110 $
b00000000000000000000000000000000 %
b00000000000000000000000000001011 &
b00000000000000000000000000000000 '
b00000000000000000000000000000000 (
#178
b1 !
b00000000000000000000000000000110 "
b00000000000000000000000000001011 #
b00000000000000000000000000000110 $
b00000000000000000000000000000000 %
b00000000000000000000000000001011 &
b00000000000000000000000000000000 '
b00000000000000000000000000000000 (
#182
b1 !
b00000000000000000000000000000110 "
b00000000000000000000000000001011 #
b11111111111111111111111111101101 $
b00000000000000000000000000000000 %
b00000000000000000000000000001011 &
b00000000000000000000000000000000 '
b00000000000000000000000000000000 (
#183
b1 !
b00000000000000000000000000000110 "
b00000000000000000000000000001011 #
b00000000000000000000000000000110 $
b00000000000000000000000000000000 %
b00000000000000000000000000001011 &
b00000000000000000000000000000000 '
b00000000000000000000000000000000 (
#184
b1 !
b00000000000000000000000000000110 "
b00000000000000000000000000001011 #
b00000000000000000000000000000110 $
b00000000000000000000000000000110 %
b00000000000000000000000000001011 &
b00000000000000000000000000000000 '
b00000000000000000000000000000000 (
#185
b1 !
b00000000000000000000000000000110 "
b00000000000000000000000000001011 #
b00000000000000000000000000000110 $
b00000000000000000000000000000000 %
b00000000000000000000000000001011 &
b00000000000000000000000000000000 '
b00000000000000000000000000000000 (
#186
b0 !
b00000000000000000000000000000110 "
b00000000000000000000000000001011 #
b00000000000000000000000000000110 $
b00000000000000000000000000000000 %
b00000000000000000000000000001011 &
b00000000000000000000000000000000 '
b00000000000000000000000000000000 (
#188
b1 !
b00000000000000000000000000000110 "
b00000000000000000000000000001011 #
b00000000000000000000000000000110 $
b00000000000000000000000000000000 %
b00000000000000000000000000001011 &
b00000000000000000000000000000000 '
b00000000000000000000000000000000 (
#189
b0 !
b00000000000000000000000000000110 "
b00000000000000000000000000001011 #
b00000000000000000000000000000110 $
b00000000000000000000000000000000 %
b00000000000000000000000000001100 &
b00000000000000000000000000000000 '
b00000000000000000000000000000000 (
#191
b1 !
b00000000000000000000000000000110 "
b00000000000000000000000000001011 #
b00000000000000000000000000000110 $
b00000000000000000000000000000000 %
b00000000000000000000000000001100 &
b00000000000000000000000000000000 '
b00000000000000000000000000000000 (
#192
b0 !
b00000000000000000000000000000110 "
b00000000000000000000000000001100 #
b00000000000000000000000000000110 $
b00000000000000000000000000000000 %
b00000000000000000000000000001100 &
b00000000000000000000000000000000 '
b00000000000000000000000000000000 (
#194
b1 !
b00000000000000000000000000000110 "
b00000000000000000000000000001100 #
b00000000000000000000000000000110 $
b00000000000000000000000000000000 %
b00000000000000000000000000001100 &
b00000000000000000000000000000000 '
b00000000000000000000000000000000 (
#198
b1 !
b00000000000000000000000000000110 "
b00000000000000000000000000001100 #
b11111111111111111111111111101110 $
b00000000000000000000000000000000 %
b00000000000000000000000000001100 &
b00000000000000000000000000000000 '
b00000000000000000000000000000000 (
#199
b1 !
b00000000000000000000000000000110 "
b00000000000000000000000000001100 #
b00000000000000000000000000000110 $
b00000000000000000000000000000000 %
b00000000000000000000000000001100 &
b00000000000000000000000000000000 '
b00000000000000000000000000000000 (
#200
b1 !
b00000000000000000000000000000110 "
b00000000000000000000000000001100 #
b00000000000000000000000000000110 $
b00000000000000000000000000000110 %
b00000000000000000000000000001100 &
b00000000000000000000000000000000 '
b00000000000000000000000000000000 (
#201
b1 !
b00000000000000000000000000000110 "
b00000000000000000000000000001100 #
b00000000000000000000000000000110 $
b00000000000000000000000000000000 %
b00000000000000000000000000001100 &
b00000000000000000000000000000000 '
b00000000000000000000000000000000 (
#202
b0 !
b00000000000000000000000000000110 "
b00000000000000000000000000001100 #
b00000000000000000000000000000110 $
b00000000000000000000000000000000 %
b00000000000000000000000000001100 &
b00000000000000000000000000000000 '
b00000000000000000000000000000000 (
#204
b1 !
b00000000000000000000000000000110 "
b00000000000000000000000000001100 #
b00000000000000000000000000000110 $
b00000000000000000000000000000000 %
b00000000000000000000000000001100 &
b00000000000000000000000000000000 '
b00000000000000000000000000000000 (
#205
b0 !
b00000000000000000000000000000110 "
b00000000000000000000000000001100 #
b00000000000000000000000000000110 $
b00000000000000000000000000000000 %
b00000000000000000000000000001101 &
b00000000000000000000000000000000 '
b00000000000000000000000000000000 (
#207
b1 !
b00000000000000000000000000000110 "
b00000000000000000000000000001100 #
b00000000000000000000000000000110 $
b00000000000000000000000000000000 %
b00000000000000000000000000001101 &
b00000000000000000000000000000000 '
b00000000000000000000000000000000 (
