TRACE.vcd
$var reg 	1 !	RegisterFile.storeenable  $end
$var reg 	32 "	RegisterFile.adr2  $end
$var reg 	32 #	RegisterFile.adr3  $end
$var reg 	32 $	RegisterFile.adr4  $end
$var reg 	32 %	RegisterFile.adr5  $end
$var reg 	32 &	RegisterFile.adr6  $end
$var reg 	32 '	RegisterFile.adr7  $end
$var reg 	32 (	RegisterFile.adr8  $end
$var reg 	1 )	bus.reqDataMem  $end
$var reg 	32 *	bus.cmdDataMem  $end
$var reg 	32 +	bus.datainDataMem  $end
$var reg 	1 ,	bus.ackDataMem  $end
$var reg 	1 -	bus.dataRdyDataMem  $end
$var reg 	32 .	bus.dataoutDataMem  $end
$var reg 	1 /	bus.waitDataMem  $end
$var reg 	1 0	bus.reqSensor  $end
$var reg 	32 1	bus.cmdSensor  $end
$var reg 	1 2	bus.ackSensor  $end
$var reg 	1 3	bus.dataRdySensor  $end
$var reg 	32 4	bus.dataoutSensor  $end
$var reg 	1 5	bus.waitSensor  $end
$var reg 	1 6	bus.reqOutput  $end
$var reg 	32 7	bus.cmdOutput  $end
$var reg 	32 8	bus.datainOutput  $end
$var reg 	1 9	bus.ackOutput  $end
$var reg 	1 :	bus.dataRdyOutput  $end
$var reg 	32 ;	bus.dataoutOutput  $end
$var reg 	1 <	bus.waitOutput  $end
$var reg 	1 =	bus.reqCPU  $end
$var reg 	32 >	bus.cmdCPU  $end
$var reg 	32 ?	bus.dataoutCPU  $end
$var reg 	1 @	bus.ackCPU  $end
$var reg 	1 A	bus.dataRdyCPU  $end
$var reg 	32 B	bus.datainCPU  $end
$var reg 	1 C	bus.waitCPU  $end
$var reg 	32 D	bus_toplevel.DM_datain  $end
$var reg 	1 E	bus_toplevel.DM_datainrdy  $end
$var reg 	32 F	bus_toplevel.DM_dataout  $end
$var reg 	32 G	bus_toplevel.DM_cmdout  $end
$var reg 	1 H	bus_toplevel.DM_dataoutrdy  $end
$var reg 	32 I	bus_toplevel.SS_datain  $end
$var reg 	1 J	bus_toplevel.SS_datainrdy  $end
$var reg 	32 K	bus_toplevel.SS_dataout  $end
$var reg 	32 L	bus_toplevel.SS_cmdout  $end
$var reg 	1 M	bus_toplevel.SS_dataoutrdy  $end
$var reg 	32 N	bus_toplevel.OP_datain  $end
$var reg 	1 O	bus_toplevel.OP_datainrdy  $end
$var reg 	32 P	bus_toplevel.OP_dataout  $end
$var reg 	32 Q	bus_toplevel.OP_cmdout  $end
$var reg 	1 R	bus_toplevel.OP_dataoutrdy  $end
$var reg 	12 S	DataMem.address  $end
$var reg 	1 T	DataMem.wr  $end
$var reg 	1 U	DataMem.rd  $end
$var reg 	32 V	DataMem.idata  $end
$var reg 	32 W	Sensor.odata  $end
$var reg 	10 X	Sensor.c  $end
$var reg 	32 Y	Output.FilterOut  $end
$var reg 	10 Z	Output.count  $end
$enddefinitions $end 
$enddefinitions $end 
#1
b1 !
b00000000000000000000000000000000 "
b00000000000000000000000000000000 #
b00000000000000000000000000000000 $
b00000000000000000000000000000000 %
b00000000000000000000000000000000 &
b00000000000000000000000000000000 '
b00000000000000000000000000000000 (
b0 )
b00000000000000000000000000000000 *
b00000000000000000000000000000000 +
b0 ,
b0 -
b00000000000000000000000000000000 .
b0 /
b0 0
b00000000000000000000000000000000 1
b0 2
b0 3
b00000000000000000000000000000000 4
b0 5
b0 6
b00000000000000000000000000000000 7
b00000000000000000000000000000000 8
b0 9
b0 :
b00000000000000000000000000000000 ;
b0 <
b0 =
b00000000000000000000000000000000 >
b00000000000000000000000000000000 ?
b0 @
b0 A
b00000000000000000000000000000000 B
b0 C
b00000000000000000000000000000000 D
b0 E
b00000000000000000000000000000000 F
b00000000000000000000000000000000 G
b0 H
b11111111111111111111111100110110 I
b0 J
b00000000000000000000000000000000 K
b00000000000000000000000000000000 L
b0 M
b00000000000000000000000100100011 N
b0 O
b00000000000000000000000000000000 P
b00000000000000000000000000000000 Q
b0 R
b000000000000 S
b0 T
b1 U
b00000000000000000000000000000000 V
b11111111111111111111111100110110 W
b0000000000 X
b00000000000000000000000000000000 Y
b0000000000 Z
#2
b1 !
b00000000000000000000000000000000 "
b00000000000000000000000000000000 #
b00000000000000000000000000000000 $
b00000000000000000000000000000000 %
b00000000000000000000000000000000 &
b00000000000000000000000000000000 '
b00000000000000000000000000000000 (
b0 )
b00000000000000000000000000000000 *
b00000000000000000000000000000000 +
b0 ,
b0 -
b00000000000000000000000000000000 .
b0 /
b0 0
b00000000000000000000000000000000 1
b0 2
b0 3
b00000000000000000000000000000000 4
b0 5
b0 6
b00000000000000000000000000000000 7
b00000000000000000000000000000000 8
b0 9
b0 :
b00000000000000000000000000000000 ;
b0 <
b0 =
b00100000000000000000000000000000 >
b00000000000000000000000000000000 ?
b0 @
b0 A
b00000000000000000000000000000000 B
b0 C
b00000000000000000000000000000000 D
b0 E
b00000000000000000000000000000000 F
b00000000000000000000000000000000 G
b0 H
b11111111111111111111111100110110 I
b0 J
b00000000000000000000000000000000 K
b00000000000000000000000000000000 L
b0 M
b00000000000000000000000100100011 N
b0 O
b00000000000000000000000000000000 P
b00000000000000000000000000000000 Q
b0 R
b000000000000 S
b0 T
b1 U
b00000000000000000000000000000000 V
b11111111111111111111111100110110 W
b0000000000 X
b00000000000000000000000000000000 Y
b0000000000 Z
#3
b1 !
b00000000000000000000000000000000 "
b00000000000000000000000000000000 #
b00000000000000000000000000000000 $
b00000000000000000000000000000000 %
b00000000000000000000000000000000 &
b00000000000000000000000000000000 '
b00000000000000000000000000000000 (
b0 )
b00000000000000000000000000000000 *
b00000000000000000000000000000000 +
b0 ,
b0 -
b00000000000000000000000000000000 .
b0 /
b0 0
b00000000000000000000000000000000 1
b0 2
b0 3
b00000000000000000000000000000000 4
b0 5
b0 6
b00000000000000000000000000000000 7
b00000000000000000000000000000000 8
b0 9
b0 :
b00000000000000000000000000000000 ;
b0 <
b0 =
b00100000000000000000000000000000 >
b00000000000000000000000000000000 ?
b0 @
b0 A
b00000000000000000000000000000000 B
b0 C
b00000000000000000000000000000000 D
b0 E
b00000000000000000000000000000000 F
b00000000000000000000000000000000 G
b0 H
b11111111111111111111111100110110 I
b0 J
b00000000000000000000000000000000 K
b00000000000000000000000000000000 L
b0 M
b00000000000000000000000100100011 N
b0 O
b00000000000000000000000000000000 P
b00000000000000000000000000000000 Q
b0 R
b000000000000 S
b0 T
b1 U
b00000000000000000000000000000000 V
b11111111111111111111111100110110 W
b0000000001 X
b00000000000000000000000000000000 Y
b0000000000 Z
#4
b1 !
b00000000000000000000000000000000 "
b00000000000000000000000000000000 #
b00000000000000000000000000000000 $
b00000000000000000000000000000000 %
b00000000000000000000000000000000 &
b00000000000000000000000000000000 '
b00000000000000000000000000000000 (
b1 )
b00100000000000000000000000000000 *
b00000000000000000000000000000000 +
b0 ,
b0 -
b00000000000000000000000000000000 .
b0 /
b1 0
b00100000000000000000000000000000 1
b0 2
b0 3
b00000000000000000000000000000000 4
b0 5
b1 6
b00100000000000000000000000000000 7
b00000000000000000000000000000000 8
b0 9
b0 :
b00000000000000000000000000000000 ;
b0 <
b1 =
b00100000000000000000000000000000 >
b00000000000000000000000000000000 ?
b0 @
b0 A
b00000000000000000000000000000000 B
b0 C
b00000000000000000000000000000000 D
b0 E
b00000000000000000000000000000000 F
b00000000000000000000000000000000 G
b0 H
b11111111111111111111111100110110 I
b0 J
b00000000000000000000000000000000 K
b00000000000000000000000000000000 L
b0 M
b00000000000000000000000100100011 N
b0 O
b00000000000000000000000000000000 P
b00000000000000000000000000000000 Q
b0 R
b000000000000 S
b0 T
b1 U
b00000000000000000000000000000000 V
b11111111111111111111111100110110 W
b0000000010 X
b00000000000000000000000000000000 Y
b0000000000 Z
#5
b1 !
b00000000000000000000000000000000 "
b00000000000000000000000000000000 #
b00000000000000000000000000000000 $
b00000000000000000000000000000000 %
b00000000000000000000000000000000 &
b00000000000000000000000000000000 '
b00000000000000000000000000000000 (
b1 )
b00100000000000000000000000000000 *
b00000000000000000000000000000000 +
b1 ,
b0 -
b00000000000000000000000000000000 .
b0 /
b1 0
b00100000000000000000000000000000 1
b0 2
b0 3
b00000000000000000000000000000000 4
b0 5
b1 6
b00100000000000000000000000000000 7
b00000000000000000000000000000000 8
b0 9
b0 :
b00000000000000000000000000000000 ;
b0 <
b1 =
b00100000000000000000000000000000 >
b00000000000000000000000000000000 ?
b1 @
b0 A
b00000000000000000000000000000000 B
b0 C
b00000000000000000000000000000000 D
b0 E
b00000000000000000000000000000000 F
b00100000000000000000000000000000 G
b1 H
b11111111111111111111111100110110 I
b0 J
b00000000000000000000000000000000 K
b00000000000000000000000000000000 L
b0 M
b00000000000000000000000100100011 N
b0 O
b00000000000000000000000000000000 P
b00000000000000000000000000000000 Q
b0 R
b000000000000 S
b0 T
b1 U
b00000000000000000000000000000000 V
b11111111111111111111111100110110 W
b0000000011 X
b00000000000000000000000000000000 Y
b0000000000 Z
#6
b1 !
b00000000000000000000000000000000 "
b00000000000000000000000000000000 #
b00000000000000000000000000000000 $
b00000000000000000000000000000000 %
b00000000000000000000000000000000 &
b00000000000000000000000000000000 '
b00000000000000000000000000000000 (
b0 )
b00000000000000000000000000000000 *
b00000000000000000000000000000000 +
b1 ,
b0 -
b00000000000000000000000000000000 .
b0 /
b0 0
b00000000000000000000000000000000 1
b0 2
b0 3
b00000000000000000000000000000000 4
b0 5
b0 6
b00000000000000000000000000000000 7
b00000000000000000000000000000000 8
b0 9
b0 :
b00000000000000000000000000000000 ;
b0 <
b0 =
b00100000000000000000000000000000 >
b00000000000000000000000000000000 ?
b1 @
b0 A
b00000000000000000000000000000000 B
b0 C
b00000000000000000000000000000000 D
b0 E
b00000000000000000000000000000000 F
b00000000000000000000000000000000 G
b0 H
b11111111111111111111111100110110 I
b0 J
b00000000000000000000000000000000 K
b00000000000000000000000000000000 L
b0 M
b00000000000000000000000100100011 N
b0 O
b00000000000000000000000000000000 P
b00000000000000000000000000000000 Q
b0 R
b000000000000 S
b0 T
b1 U
b00000000000000000000000000000000 V
b11111111111111111111111100110110 W
b0000000100 X
b00000000000000000000000000000000 Y
b0000000000 Z
#7
b1 !
b00000000000000000000000000000000 "
b00000000000000000000000000000000 #
b00000000000000000000000000000000 $
b00000000000000000000000000000000 %
b00000000000000000000000000000000 &
b00000000000000000000000000000000 '
b00000000000000000000000000000000 (
b0 )
b00000000000000000000000000000000 *
b00000000000000000000000000000000 +
b0 ,
b0 -
b00000000000000000000000000000000 .
b0 /
b0 0
b00000000000000000000000000000000 1
b0 2
b0 3
b00000000000000000000000000000000 4
b0 5
b0 6
b00000000000000000000000000000000 7
b00000000000000000000000000000000 8
b0 9
b0 :
b00000000000000000000000000000000 ;
b0 <
b0 =
b00100000000000000000000000000000 >
b00000000000000000000000000000000 ?
b0 @
b0 A
b00000000000000000000000000000000 B
b0 C
b00000000000000000000000000000000 D
b0 E
b00000000000000000000000000000000 F
b00000000000000000000000000000000 G
b0 H
b11111111111111111111111100110110 I
b0 J
b00000000000000000000000000000000 K
b00000000000000000000000000000000 L
b0 M
b00000000000000000000000100100011 N
b0 O
b00000000000000000000000000000000 P
b00000000000000000000000000000000 Q
b0 R
b000000000000 S
b0 T
b1 U
b00000000000000000000000000000000 V
b11111111111111111111111100110110 W
b0000000101 X
b00000000000000000000000000000000 Y
b0000000000 Z
#8
b1 !
b00000000000000000000000000000000 "
b00000000000000000000000000000000 #
b00000000000000000000000000000000 $
b00000000000000000000000000000000 %
b00000000000000000000000000000000 &
b00000000000000000000000000000000 '
b00000000000000000000000000000000 (
b0 )
b00000000000000000000000000000000 *
b00000000000000000000000000000000 +
b0 ,
b0 -
b00000000000000000000000000000000 .
b0 /
b0 0
b00000000000000000000000000000000 1
b0 2
b0 3
b00000000000000000000000000000000 4
b0 5
b0 6
b00000000000000000000000000000000 7
b00000000000000000000000000000000 8
b0 9
b0 :
b00000000000000000000000000000000 ;
b0 <
b0 =
b00100000000000000000000000000000 >
b00000000000000000000000000000000 ?
b0 @
b0 A
b00000000000000000000000000000000 B
b0 C
b00000000000000000000000000000000 D
b0 E
b00000000000000000000000000000000 F
b00000000000000000000000000000000 G
b0 H
b11111111111111111111111100110110 I
b0 J
b00000000000000000000000000000000 K
b00000000000000000000000000000000 L
b0 M
b00000000000000000000000100100011 N
b0 O
b00000000000000000000000000000000 P
b00000000000000000000000000000000 Q
b0 R
b000000000000 S
b0 T
b1 U
b00000000000000000000000000000000 V
b11111111111111111111111100110110 W
b0000000110 X
b00000000000000000000000000000000 Y
b0000000000 Z
#9
b1 !
b00000000000000000000000000000000 "
b00000000000000000000000000000000 #
b00000000000000000000000000000000 $
b00000000000000000000000000000000 %
b00000000000000000000000000000000 &
b00000000000000000000000000000000 '
b00000000000000000000000000000000 (
b0 )
b00000000000000000000000000000000 *
b00000000000000000000000000000000 +
b0 ,
b0 -
b00000000000000000000000000000000 .
b0 /
b0 0
b00000000000000000000000000000000 1
b0 2
b0 3
b00000000000000000000000000000000 4
b0 5
b0 6
b00000000000000000000000000000000 7
b00000000000000000000000000000000 8
b0 9
b0 :
b00000000000000000000000000000000 ;
b0 <
b0 =
b00100000000000000000000000000000 >
b00000000000000000000000000000000 ?
b0 @
b0 A
b00000000000000000000000000000000 B
b0 C
b00000000000000000000000000000000 D
b1 E
b00000000000000000000000000000000 F
b00000000000000000000000000000000 G
b0 H
b11111111111111111111111100110110 I
b0 J
b00000000000000000000000000000000 K
b00000000000000000000000000000000 L
b0 M
b00000000000000000000000100100011 N
b0 O
b00000000000000000000000000000000 P
b00000000000000000000000000000000 Q
b0 R
b000000000000 S
b0 T
b1 U
b00000000000000000000000000000000 V
b11111111111111111111111100110110 W
b0000000111 X
b00000000000000000000000000000000 Y
b0000000000 Z
#10
b1 !
b00000000000000000000000000000000 "
b00000000000000000000000000000000 #
b00000000000000000000000000000000 $
b00000000000000000000000000000000 %
b00000000000000000000000000000000 &
b00000000000000000000000000000000 '
b00000000000000000000000000000000 (
b0 )
b00000000000000000000000000000000 *
b00000000000000000000000000000000 +
b0 ,
b1 -
b00000000000000000000000000000000 .
b0 /
b0 0
b00000000000000000000000000000000 1
b0 2
b0 3
b00000000000000000000000000000000 4
b0 5
b0 6
b00000000000000000000000000000000 7
b00000000000000000000000000000000 8
b0 9
b0 :
b00000000000000000000000000000000 ;
b0 <
b0 =
b00100000000000000000000000000000 >
b00000000000000000000000000000000 ?
b0 @
b1 A
b00000000000000000000000000000000 B
b0 C
b00000000000000000000000000000000 D
b0 E
b00000000000000000000000000000000 F
b00000000000000000000000000000000 G
b0 H
b11111111111111111111111100110110 I
b0 J
b00000000000000000000000000000000 K
b00000000000000000000000000000000 L
b0 M
b00000000000000000000000100100011 N
b0 O
b00000000000000000000000000000000 P
b00000000000000000000000000000000 Q
b0 R
b000000000000 S
b0 T
b1 U
b00000000000000000000000000000000 V
b11111111111111111111111100110110 W
b0000001000 X
b00000000000000000000000000000000 Y
b0000000000 Z
#11
b1 !
b00000000000000000000000000000000 "
b00000000000000000000000000000000 #
b00000000000000000000000000000000 $
b00000000000000000000000000000000 %
b00000000000000000000000000000000 &
b00000000000000000000000000000000 '
b00000000000000000000000000000000 (
b0 )
b00000000000000000000000000000000 *
b00000000000000000000000000000000 +
b0 ,
b1 -
b00000000000000000000000000000000 .
b1 /
b0 0
b00000000000000000000000000000000 1
b0 2
b0 3
b00000000000000000000000000000000 4
b1 5
b0 6
b00000000000000000000000000000000 7
b00000000000000000000000000000000 8
b0 9
b0 :
b00000000000000000000000000000000 ;
b1 <
b0 =
b00000000000000000000000000000000 >
b00000000000000000000000000000000 ?
b0 @
b1 A
b00000000000000000000000000000000 B
b1 C
b00000000000000000000000000000000 D
b0 E
b00000000000000000000000000000000 F
b00000000000000000000000000000000 G
b0 H
b11111111111111111111111100110110 I
b0 J
b00000000000000000000000000000000 K
b00000000000000000000000000000000 L
b0 M
b00000000000000000000000100100011 N
b0 O
b00000000000000000000000000000000 P
b00000000000000000000000000000000 Q
b0 R
b000000000000 S
b0 T
b1 U
b00000000000000000000000000000000 V
b11111111111111111111111100110110 W
b0000001001 X
b00000000000000000000000000000000 Y
b0000000000 Z
#12
b0 !
b00000000000000000000000000000000 "
b00000000000000000000000000000000 #
b00000000000000000000000000000000 $
b00000000000000000000000000000000 %
b00000000000000000000000000000000 &
b00000000000000000000000000000000 '
b00000000000000000000000000000000 (
b0 )
b00000000000000000000000000000000 *
b00000000000000000000000000000000 +
b0 ,
b0 -
b00000000000000000000000000000000 .
b0 /
b0 0
b00000000000000000000000000000000 1
b0 2
b0 3
b00000000000000000000000000000000 4
b0 5
b0 6
b00000000000000000000000000000000 7
b00000000000000000000000000000000 8
b0 9
b0 :
b00000000000000000000000000000000 ;
b0 <
b0 =
b00000000000000000000000000000000 >
b00000000000000000000000000000000 ?
b0 @
b0 A
b00000000000000000000000000000000 B
b0 C
b00000000000000000000000000000000 D
b0 E
b00000000000000000000000000000000 F
b00000000000000000000000000000000 G
b0 H
b11111111111111111111111100111001 I
b0 J
b00000000000000000000000000000000 K
b00000000000000000000000000000000 L
b0 M
b00000000000000000000000100100011 N
b0 O
b00000000000000000000000000000000 P
b00000000000000000000000000000000 Q
b0 R
b000000000000 S
b0 T
b1 U
b00000000000000000000000000000000 V
b11111111111111111111111100111001 W
b0000000000 X
b00000000000000000000000000000000 Y
b0000000000 Z
#13
b0 !
b00000000000000000000000000000000 "
b00000000000000000000000000000000 #
b00000000000000000000000000000000 $
b00000000000000000000000000000000 %
b00000000000000000000000000000000 &
b00000000000000000000000000000000 '
b00000000000000000000000000000000 (
b0 )
b00000000000000000000000000000000 *
b00000000000000000000000000000000 +
b0 ,
b0 -
b00000000000000000000000000000000 .
b0 /
b0 0
b00000000000000000000000000000000 1
b0 2
b0 3
b00000000000000000000000000000000 4
b0 5
b0 6
b00000000000000000000000000000000 7
b00000000000000000000000000000000 8
b0 9
b0 :
b00000000000000000000000000000000 ;
b0 <
b0 =
b00100000000000000000000000000000 >
b00000000000000000000000000000000 ?
b0 @
b0 A
b00000000000000000000000000000000 B
b0 C
b00000000000000000000000000000000 D
b0 E
b00000000000000000000000000000000 F
b00000000000000000000000000000000 G
b0 H
b11111111111111111111111100111001 I
b0 J
b00000000000000000000000000000000 K
b00000000000000000000000000000000 L
b0 M
b00000000000000000000000100100011 N
b0 O
b00000000000000000000000000000000 P
b00000000000000000000000000000000 Q
b0 R
b000000000000 S
b0 T
b1 U
b00000000000000000000000000000000 V
b11111111111111111111111100111001 W
b0000000001 X
b00000000000000000000000000000000 Y
b0000000000 Z
#14
b0 !
b00000000000000000000000000000000 "
b00000000000000000000000000000000 #
b00000000000000000000000000000000 $
b00000000000000000000000000000000 %
b00000000000000000000000000000000 &
b00000000000000000000000000000000 '
b00000000000000000000000000000000 (
b0 )
b00000000000000000000000000000000 *
b00000000000000000000000000000000 +
b0 ,
b0 -
b00000000000000000000000000000000 .
b0 /
b0 0
b00000000000000000000000000000000 1
b0 2
b0 3
b00000000000000000000000000000000 4
b0 5
b0 6
b00000000000000000000000000000000 7
b00000000000000000000000000000000 8
b0 9
b0 :
b00000000000000000000000000000000 ;
b0 <
b0 =
b00100000000000000000000000000000 >
b00000000000000000000000000000000 ?
b0 @
b0 A
b00000000000000000000000000000000 B
b0 C
b00000000000000000000000000000000 D
b0 E
b00000000000000000000000000000000 F
b00000000000000000000000000000000 G
b0 H
b11111111111111111111111100111001 I
b0 J
b00000000000000000000000000000000 K
b00000000000000000000000000000000 L
b0 M
b00000000000000000000000100100011 N
b0 O
b00000000000000000000000000000000 P
b00000000000000000000000000000000 Q
b0 R
b000000000000 S
b0 T
b1 U
b00000000000000000000000000000000 V
b11111111111111111111111100111001 W
b0000000010 X
b00000000000000000000000000000000 Y
b0000000000 Z
#15
b0 !
b00000000000000000000000000000000 "
b00000000000000000000000000000000 #
b00000000000000000000000000000000 $
b00000000000000000000000000000000 %
b00000000000000000000000000000000 &
b00000000000000000000000000000000 '
b00000000000000000000000000000000 (
b1 )
b00101000000000000000000100011001 *
b00000000000000000000000000000000 +
b0 ,
b0 -
b00000000000000000000000000000000 .
b0 /
b1 0
b00101000000000000000000100011001 1
b0 2
b0 3
b00000000000000000000000000000000 4
b0 5
b1 6
b00101000000000000000000100011001 7
b00000000000000000000000000000000 8
b0 9
b0 :
b00000000000000000000000000000000 ;
b0 <
b1 =
b00101000000000000000000100011001 >
b00000000000000000000000000000000 ?
b0 @
b0 A
b00000000000000000000000000000000 B
b0 C
b00000000000000000000000000000000 D
b0 E
b00000000000000000000000000000000 F
b00000000000000000000000000000000 G
b0 H
b11111111111111111111111100111001 I
b0 J
b00000000000000000000000000000000 K
b00000000000000000000000000000000 L
b0 M
b00000000000000000000000100100011 N
b0 O
b00000000000000000000000000000000 P
b00000000000000000000000000000000 Q
b0 R
b000000000000 S
b0 T
b1 U
b00000000000000000000000000000000 V
b11111111111111111111111100111001 W
b0000000011 X
b00000000000000000000000000000000 Y
b0000000000 Z
#16
b0 !
b00000000000000000000000000000000 "
b00000000000000000000000000000000 #
b00000000000000000000000000000000 $
b00000000000000000000000000000000 %
b00000000000000000000000000000000 &
b00000000000000000000000000000000 '
b00000000000000000000000000000000 (
b1 )
b00101000000000000000000100011001 *
b00000000000000000000000000000000 +
b1 ,
b0 -
b00000000000000000000000000000000 .
b0 /
b1 0
b00101000000000000000000100011001 1
b0 2
b0 3
b00000000000000000000000000000000 4
b0 5
b1 6
b00101000000000000000000100011001 7
b00000000000000000000000000000000 8
b0 9
b0 :
b00000000000000000000000000000000 ;
b0 <
b1 =
b00101000000000000000000100011001 >
b00000000000000000000000000000000 ?
b1 @
b0 A
b00000000000000000000000000000000 B
b0 C
b00000000000000000000000000000000 D
b0 E
b00000000000000000000000000000000 F
b00101000000000000000000100011001 G
b1 H
b11111111111111111111111100111001 I
b0 J
b00000000000000000000000000000000 K
b00000000000000000000000000000000 L
b0 M
b00000000000000000000000100100011 N
b0 O
b00000000000000000000000000000000 P
b00000000000000000000000000000000 Q
b0 R
b000000000000 S
b0 T
b1 U
b00000000000000000000000000000000 V
b11111111111111111111111100111001 W
b0000000100 X
b00000000000000000000000000000000 Y
b0000000000 Z
#17
b0 !
b00000000000000000000000000000000 "
b00000000000000000000000000000000 #
b00000000000000000000000000000000 $
b00000000000000000000000000000000 %
b00000000000000000000000000000000 &
b00000000000000000000000000000000 '
b00000000000000000000000000000000 (
b0 )
b00000000000000000000000000000000 *
b00000000000000000000000000000000 +
b1 ,
b0 -
b00000000000000000000000000000000 .
b0 /
b0 0
b00000000000000000000000000000000 1
b0 2
b0 3
b00000000000000000000000000000000 4
b0 5
b0 6
b00000000000000000000000000000000 7
b00000000000000000000000000000000 8
b0 9
b0 :
b00000000000000000000000000000000 ;
b0 <
b0 =
b00101000000000000000000100011001 >
b00000000000000000000000000000000 ?
b1 @
b0 A
b00000000000000000000000000000000 B
b0 C
b00000000000000000000000000000000 D
b0 E
b00000000000000000000000000000000 F
b00000000000000000000000000000000 G
b0 H
b11111111111111111111111100111001 I
b0 J
b00000000000000000000000000000000 K
b00000000000000000000000000000000 L
b0 M
b00000000000000000000000100100011 N
b0 O
b00000000000000000000000000000000 P
b00000000000000000000000000000000 Q
b0 R
b000100011001 S
b1 T
b0 U
b00000000000000000000000000000000 V
b11111111111111111111111100111001 W
b0000000101 X
b00000000000000000000000000000000 Y
b0000000000 Z
#18
b0 !
b00000000000000000000000000000000 "
b00000000000000000000000000000000 #
b00000000000000000000000000000000 $
b00000000000000000000000000000000 %
b00000000000000000000000000000000 &
b00000000000000000000000000000000 '
b00000000000000000000000000000000 (
b0 )
b00000000000000000000000000000000 *
b00000000000000000000000000000000 +
b0 ,
b0 -
b00000000000000000000000000000000 .
b0 /
b0 0
b00000000000000000000000000000000 1
b0 2
b0 3
b00000000000000000000000000000000 4
b0 5
b0 6
b00000000000000000000000000000000 7
b00000000000000000000000000000000 8
b0 9
b0 :
b00000000000000000000000000000000 ;
b0 <
b0 =
b00101000000000000000000100011001 >
b00000000000000000000000000000000 ?
b0 @
b0 A
b00000000000000000000000000000000 B
b0 C
b00000000000000000000000000000000 D
b0 E
b00000000000000000000000000000000 F
b00000000000000000000000000000000 G
b0 H
b11111111111111111111111100111001 I
b0 J
b00000000000000000000000000000000 K
b00000000000000000000000000000000 L
b0 M
b00000000000000000000000100100011 N
b0 O
b00000000000000000000000000000000 P
b00000000000000000000000000000000 Q
b0 R
b000100011001 S
b1 T
b0 U
b00000000000000000000000000000000 V
b11111111111111111111111100111001 W
b0000000110 X
b00000000000000000000000000000000 Y
b0000000000 Z
#19
b0 !
b00000000000000000000000000000000 "
b00000000000000000000000000000000 #
b00000000000000000000000000000000 $
b00000000000000000000000000000000 %
b00000000000000000000000000000000 &
b00000000000000000000000000000000 '
b00000000000000000000000000000000 (
b0 )
b00000000000000000000000000000000 *
b00000000000000000000000000000000 +
b0 ,
b0 -
b00000000000000000000000000000000 .
b0 /
b0 0
b00000000000000000000000000000000 1
b0 2
b0 3
b00000000000000000000000000000000 4
b0 5
b0 6
b00000000000000000000000000000000 7
b00000000000000000000000000000000 8
b0 9
b0 :
b00000000000000000000000000000000 ;
b0 <
b0 =
b00101000000000000000000100011001 >
b00000000000000000000000000000000 ?
b0 @
b0 A
b00000000000000000000000000000000 B
b0 C
b00000000000000000000000000000000 D
b0 E
b00000000000000000000000000000000 F
b00000000000000000000000000000000 G
b0 H
b11111111111111111111111100111001 I
b0 J
b00000000000000000000000000000000 K
b00000000000000000000000000000000 L
b0 M
b00000000000000000000000100100011 N
b0 O
b00000000000000000000000000000000 P
b00000000000000000000000000000000 Q
b0 R
b000100011001 S
b1 T
b0 U
b00000000000000000000000000000000 V
b11111111111111111111111100111001 W
b0000000111 X
b00000000000000000000000000000000 Y
b0000000000 Z
#20
b0 !
b00000000000000000000000000000000 "
b00000000000000000000000000000000 #
b00000000000000000000000000000000 $
b00000000000000000000000000000000 %
b00000000000000000000000000000000 &
b00000000000000000000000000000000 '
b00000000000000000000000000000000 (
b0 )
b00000000000000000000000000000000 *
b00000000000000000000000000000000 +
b0 ,
b0 -
b00000000000000000000000000000000 .
b0 /
b0 0
b00000000000000000000000000000000 1
b0 2
b0 3
b00000000000000000000000000000000 4
b0 5
b0 6
b00000000000000000000000000000000 7
b00000000000000000000000000000000 8
b0 9
b0 :
b00000000000000000000000000000000 ;
b0 <
b0 =
b00101000000000000000000100011001 >
b00000000000000000000000000000000 ?
b0 @
b0 A
b00000000000000000000000000000000 B
b0 C
b00000000000000000000000000000000 D
b1 E
b00000000000000000000000000000000 F
b00000000000000000000000000000000 G
b0 H
b11111111111111111111111100111001 I
b0 J
b00000000000000000000000000000000 K
b00000000000000000000000000000000 L
b0 M
b00000000000000000000000100100011 N
b0 O
b00000000000000000000000000000000 P
b00000000000000000000000000000000 Q
b0 R
b000100011001 S
b1 T
b0 U
b00000000000000000000000000000000 V
b11111111111111111111111100111001 W
b0000001000 X
b00000000000000000000000000000000 Y
b0000000000 Z
#21
b0 !
b00000000000000000000000000000000 "
b00000000000000000000000000000000 #
b00000000000000000000000000000000 $
b00000000000000000000000000000000 %
b00000000000000000000000000000000 &
b00000000000000000000000000000000 '
b00000000000000000000000000000000 (
b0 )
b00000000000000000000000000000000 *
b00000000000000000000000000000000 +
b0 ,
b1 -
b00000000000000000000000000000000 .
b0 /
b0 0
b00000000000000000000000000000000 1
b0 2
b0 3
b00000000000000000000000000000000 4
b0 5
b0 6
b00000000000000000000000000000000 7
b00000000000000000000000000000000 8
b0 9
b0 :
b00000000000000000000000000000000 ;
b0 <
b0 =
b00101000000000000000000100011001 >
b00000000000000000000000000000000 ?
b0 @
b1 A
b00000000000000000000000000000000 B
b0 C
b00000000000000000000000000000000 D
b0 E
b00000000000000000000000000000000 F
b00000000000000000000000000000000 G
b0 H
b11111111111111111111111100111001 I
b0 J
b00000000000000000000000000000000 K
b00000000000000000000000000000000 L
b0 M
b00000000000000000000000100100011 N
b0 O
b00000000000000000000000000000000 P
b00000000000000000000000000000000 Q
b0 R
b000100011001 S
b1 T
b0 U
b00000000000000000000000000000000 V
b11111111111111111111111100111001 W
b0000001001 X
b00000000000000000000000000000000 Y
b0000000000 Z
#22
b0 !
b00000000000000000000000000000000 "
b00000000000000000000000000000000 #
b00000000000000000000000000000000 $
b00000000000000000000000000000000 %
b00000000000000000000000000000000 &
b00000000000000000000000000000000 '
b00000000000000000000000000000000 (
b0 )
b00000000000000000000000000000000 *
b00000000000000000000000000000000 +
b0 ,
b1 -
b00000000000000000000000000000000 .
b1 /
b0 0
b00000000000000000000000000000000 1
b0 2
b0 3
b00000000000000000000000000000000 4
b1 5
b0 6
b00000000000000000000000000000000 7
b00000000000000000000000000000000 8
b0 9
b0 :
b00000000000000000000000000000000 ;
b1 <
b0 =
b00000000000000000000000000000000 >
b00000000000000000000000000000000 ?
b0 @
b1 A
b00000000000000000000000000000000 B
b1 C
b00000000000000000000000000000000 D
b0 E
b00000000000000000000000000000000 F
b00000000000000000000000000000000 G
b0 H
b11111111111111111111111100111000 I
b0 J
b00000000000000000000000000000000 K
b00000000000000000000000000000000 L
b0 M
b00000000000000000000000100100011 N
b0 O
b00000000000000000000000000000000 P
b00000000000000000000000000000000 Q
b0 R
b000000000000 S
b0 T
b1 U
b00000000000000000000000000000000 V
b11111111111111111111111100111000 W
b0000000000 X
b00000000000000000000000000000000 Y
b0000000000 Z
