TRACE.vcd
$var reg 	32 !	dataMux32.inp  $end
$var reg 	1 "	RegisterFile.storeenable  $end
$var reg 	32 #	RegisterFile.adr2  $end
$var reg 	32 $	RegisterFile.adr3  $end
$var reg 	32 %	RegisterFile.adr4  $end
$var reg 	32 &	RegisterFile.adr5  $end
$var reg 	32 '	RegisterFile.adr6  $end
$var reg 	32 (	RegisterFile.adr7  $end
$var reg 	32 )	RegisterFile.adr8  $end
$var reg 	32 *	ALU32.R  $end
$var reg 	32 +	instructionFetch.instmem_out  $end
$var reg 	1 ,	CPU.M_datainrdy  $end
$var reg 	32 -	bus_toplevel.COP_datain  $end
$var reg 	1 .	bus_toplevel.COP_datainrdy  $end
$var reg 	32 /	bus_toplevel.COP_dataout  $end
$var reg 	32 0	bus_toplevel.COP_cmdout  $end
$var reg 	1 1	bus_toplevel.COP_dataoutrdy  $end
$var reg 	12 2	DataMem.address  $end
$var reg 	1 3	DataMem.wr  $end
$var reg 	1 4	DataMem.rd  $end
$var reg 	32 5	DataMem.idata  $end
$var reg 	32 6	Sensor.odata  $end
$var reg 	10 7	Sensor.c  $end
$var reg 	32 8	Output.FilterOut  $end
$var reg 	10 9	Output.count  $end
$var reg 	32 :	registerchain32.r1  $end
$var reg 	32 ;	registerchain32.r2  $end
$var reg 	32 <	registerchain32.r3  $end
$var reg 	32 =	registerchain32.r32  $end
$var reg 	32 >	registersum.R_regsum  $end
$var reg 	1 ?	CoPro.enable  $end
$var reg 	32 @	CoPro.addA  $end
$var reg 	32 A	CoPro.dataout  $end
$var reg 	1 B	CoPro.dataoutrdy  $end
$var reg 	1 C	CoPro.stallr  $end
$enddefinitions $end 
$enddefinitions $end 
#1
b00000000000000000000000000000000 !
b1 "
b00000000000000000000000000000000 #
b00000000000000000000000000000000 $
b00000000000000000000000000000000 %
b00000000000000000000000000000000 &
b00000000000000000000000000000000 '
b00000000000000000000000000000000 (
b00000000000000000000000000000000 )
b00000000000000000000000000000000 *
b00110010100000000000000000000000 +
b1 ,
b00000000000000000000000000000000 -
b0 .
b00000000000000000000000000000000 /
b00000000000000000000000000000000 0
b0 1
b000000000000 2
b0 3
b1 4
b00000000000000000000000000000000 5
b11111111111111111111111100110110 6
b0000000000 7
b00000000000000000000000000000000 8
b0000000000 9
b00000000000000000000000000000000 :
b00000000000000000000000000000000 ;
b00000000000000000000000000000000 <
b00000000000000000000000000000000 =
b00000000000000000000000000000000 >
b0 ?
b00000000000000000000000000000000 @
b00000000000000000000000000000000 A
b0 B
b0 C
#3
b00000000000000000000000000000000 !
b1 "
b00000000000000000000000000000000 #
b00000000000000000000000000000000 $
b00000000000000000000000000000000 %
b00000000000000000000000000000000 &
b00000000000000000000000000000000 '
b00000000000000000000000000000000 (
b00000000000000000000000000000000 )
b00000000000000000000000000000000 *
b00110010100000000000000000000000 +
b1 ,
b00000000000000000000000000000000 -
b0 .
b00000000000000000000000000000000 /
b00000000000000000000000000000000 0
b0 1
b000000000000 2
b0 3
b1 4
b00000000000000000000000000000000 5
b11111111111111111111111100110110 6
b0000000001 7
b00000000000000000000000000000000 8
b0000000000 9
b00000000000000000000000000000000 :
b00000000000000000000000000000000 ;
b00000000000000000000000000000000 <
b00000000000000000000000000000000 =
b00000000000000000000000000000000 >
b0 ?
b00000000000000000000000000000000 @
b00000000000000000000000000000000 A
b0 B
b0 C
#4
b00000000000000000000000000000000 !
b1 "
b00000000000000000000000000000000 #
b00000000000000000000000000000000 $
b00000000000000000000000000000000 %
b00000000000000000000000000000000 &
b00000000000000000000000000000000 '
b00000000000000000000000000000000 (
b00000000000000000000000000000000 )
b00000000000000000000000000000000 *
b00110010100000000000000000000000 +
b1 ,
b00000000000000000000000000000000 -
b0 .
b00000000000000000000000000000000 /
b00000000000000000000000000000000 0
b0 1
b000000000000 2
b0 3
b1 4
b00000000000000000000000000000000 5
b11111111111111111111111100110110 6
b0000000010 7
b00000000000000000000000000000000 8
b0000000000 9
b00000000000000000000000000000000 :
b00000000000000000000000000000000 ;
b00000000000000000000000000000000 <
b00000000000000000000000000000000 =
b00000000000000000000000000000000 >
b0 ?
b00000000000000000000000000000000 @
b00000000000000000000000000000000 A
b0 B
b0 C
#5
b00000000000000000000000000000000 !
b1 "
b00000000000000000000000000000000 #
b00000000000000000000000000000000 $
b00000000000000000000000000000000 %
b00000000000000000000000000000000 &
b00000000000000000000000000000000 '
b00000000000000000000000000000000 (
b00000000000000000000000000000000 )
b00000000000000000000000000000000 *
b00110010100000000000000000000000 +
b1 ,
b00000000000000000000000000000000 -
b0 .
b00000000000000000000000000000000 /
b00000000000000000000000000000000 0
b0 1
b000000000000 2
b0 3
b1 4
b00000000000000000000000000000000 5
b11111111111111111111111100110110 6
b0000000011 7
b00000000000000000000000000000000 8
b0000000000 9
b00000000000000000000000000000000 :
b00000000000000000000000000000000 ;
b00000000000000000000000000000000 <
b00000000000000000000000000000000 =
b00000000000000000000000000000000 >
b0 ?
b00000000000000000000000000000000 @
b00000000000000000000000000000000 A
b0 B
b0 C
#6
b00000000000000000000000000000000 !
b1 "
b00000000000000000000000000000000 #
b00000000000000000000000000000000 $
b00000000000000000000000000000000 %
b00000000000000000000000000000000 &
b00000000000000000000000000000000 '
b00000000000000000000000000000000 (
b00000000000000000000000000000000 )
b00000000000000000000000000000000 *
b00110010100000000000000000000000 +
b1 ,
b00000000000000000000000000000000 -
b0 .
b00000000000000000000000000000000 /
b00000000000000000000000000000000 0
b0 1
b000000000000 2
b0 3
b1 4
b00000000000000000000000000000000 5
b11111111111111111111111100110110 6
b0000000100 7
b00000000000000000000000000000000 8
b0000000000 9
b00000000000000000000000000000000 :
b00000000000000000000000000000000 ;
b00000000000000000000000000000000 <
b00000000000000000000000000000000 =
b00000000000000000000000000000000 >
b0 ?
b00000000000000000000000000000000 @
b00000000000000000000000000000000 A
b0 B
b0 C
#7
b00000000000000000000000000000000 !
b1 "
b00000000000000000000000000000000 #
b00000000000000000000000000000000 $
b00000000000000000000000000000000 %
b00000000000000000000000000000000 &
b00000000000000000000000000000000 '
b00000000000000000000000000000000 (
b00000000000000000000000000000000 )
b00000000000000000000000000000000 *
b00110010100000000000000000000000 +
b1 ,
b00000000000000000000000000000000 -
b0 .
b00000000000000000000000000000000 /
b00000000000000000000000000000000 0
b0 1
b000000000000 2
b0 3
b1 4
b00000000000000000000000000000000 5
b11111111111111111111111100110110 6
b0000000101 7
b00000000000000000000000000000000 8
b0000000000 9
b00000000000000000000000000000000 :
b00000000000000000000000000000000 ;
b00000000000000000000000000000000 <
b00000000000000000000000000000000 =
b00000000000000000000000000000000 >
b0 ?
b00000000000000000000000000000000 @
b00000000000000000000000000000000 A
b0 B
b0 C
#8
b00000000000000000000000000000000 !
b1 "
b00000000000000000000000000000000 #
b00000000000000000000000000000000 $
b00000000000000000000000000000000 %
b00000000000000000000000000000000 &
b00000000000000000000000000000000 '
b00000000000000000000000000000000 (
b00000000000000000000000000000000 )
b00000000000000000000000000000000 *
b00110010100000000000000000000000 +
b1 ,
b00000000000000000000000000000000 -
b0 .
b00000000000000000000000000000000 /
b00000000000000000000000000000000 0
b0 1
b000000000000 2
b0 3
b1 4
b00000000000000000000000000000000 5
b11111111111111111111111100110110 6
b0000000110 7
b00000000000000000000000000000000 8
b0000000000 9
b00000000000000000000000000000000 :
b00000000000000000000000000000000 ;
b00000000000000000000000000000000 <
b00000000000000000000000000000000 =
b00000000000000000000000000000000 >
b0 ?
b00000000000000000000000000000000 @
b00000000000000000000000000000000 A
b0 B
b0 C
#9
b00000000000000000000000000000000 !
b1 "
b00000000000000000000000000000000 #
b00000000000000000000000000000000 $
b00000000000000000000000000000000 %
b00000000000000000000000000000000 &
b00000000000000000000000000000000 '
b00000000000000000000000000000000 (
b00000000000000000000000000000000 )
b00000000000000000000000000000000 *
b00110010100000000000000000000000 +
b1 ,
b00000000000000000000000000000000 -
b0 .
b00000000000000000000000000000000 /
b00000000000000000000000000000000 0
b0 1
b000000000000 2
b0 3
b1 4
b00000000000000000000000000000000 5
b11111111111111111111111100110110 6
b0000000111 7
b00000000000000000000000000000000 8
b0000000000 9
b00000000000000000000000000000000 :
b00000000000000000000000000000000 ;
b00000000000000000000000000000000 <
b00000000000000000000000000000000 =
b00000000000000000000000000000000 >
b0 ?
b00000000000000000000000000000000 @
b00000000000000000000000000000000 A
b0 B
b0 C
#10
b00000000000000000000000000000000 !
b0 "
b00000000000000000000000000000000 #
b00000000000000000000000000000000 $
b00000000000000000000000000000000 %
b00000000000000000000000000000000 &
b00000000000000000000000000000000 '
b00000000000000000000000000000000 (
b00000000000000000000000000000000 )
b00000000000000000000000000000000 *
b00000000000000000000000000000000 +
b0 ,
b00000000000000000000000000000000 -
b0 .
b00000000000000000000000000000000 /
b00000000000000000000000000000000 0
b0 1
b000000000000 2
b0 3
b1 4
b00000000000000000000000000000000 5
b11111111111111111111111100110110 6
b0000001000 7
b00000000000000000000000000000000 8
b0000000000 9
b00000000000000000000000000000000 :
b00000000000000000000000000000000 ;
b00000000000000000000000000000000 <
b00000000000000000000000000000000 =
b00000000000000000000000000000000 >
b0 ?
b00000000000000000000000000000000 @
b00000000000000000000000000000000 A
b0 B
b0 C
#11
b00000000000000000000000000000000 !
b0 "
b00000000000000000000000000000000 #
b00000000000000000000000000000000 $
b00000000000000000000000000000000 %
b00000000000000000000000000000000 &
b00000000000000000000000000000000 '
b00000000000000000000000000000000 (
b00000000000000000000000000000000 )
b00000000000000000000000000000000 *
b00000000000000000000000000000000 +
b0 ,
b00000000000000000000000000000000 -
b0 .
b00000000000000000000000000000000 /
b00000000000000000000000000000000 0
b0 1
b000000000000 2
b0 3
b1 4
b00000000000000000000000000000000 5
b11111111111111111111111100110110 6
b0000001001 7
b00000000000000000000000000000000 8
b0000000000 9
b00000000000000000000000000000000 :
b00000000000000000000000000000000 ;
b00000000000000000000000000000000 <
b00000000000000000000000000000000 =
b00000000000000000000000000000000 >
b0 ?
b00000000000000000000000000000000 @
b00000000000000000000000000000000 A
b0 B
b0 C
#12
b00000000000000000000000000000000 !
b0 "
b00000000000000000000000000000000 #
b00000000000000000000000000000000 $
b00000000000000000000000000000000 %
b00000000000000000000000000000000 &
b00000000000000000000000000000000 '
b00000000000000000000000000000000 (
b00000000000000000000000000000000 )
b00000000000000000000000000000000 *
b11110000010000000000000000000000 +
b1 ,
b00000000000000000000000000000000 -
b0 .
b00000000000000000000000000000000 /
b00000000000000000000000000000000 0
b0 1
b000000000000 2
b0 3
b1 4
b00000000000000000000000000000000 5
b11111111111111111111111100111001 6
b0000000000 7
b00000000000000000000000000000000 8
b0000000000 9
b00000000000000000000000000000000 :
b00000000000000000000000000000000 ;
b00000000000000000000000000000000 <
b00000000000000000000000000000000 =
b00000000000000000000000000000000 >
b0 ?
b00000000000000000000000000000000 @
b00000000000000000000000000000000 A
b0 B
b0 C
#13
b00000000000000000000000000000000 !
b0 "
b00000000000000000000000000000000 #
b00000000000000000000000000000000 $
b00000000000000000000000000000000 %
b00000000000000000000000000000000 &
b00000000000000000000000000000000 '
b00000000000000000000000000000000 (
b00000000000000000000000000000000 )
b00000000000000000000000000000000 *
b11110000010000000000000000000000 +
b1 ,
b00000000000000000000000000000000 -
b0 .
b00000000000000000000000000000000 /
b00000000000000000000000000000000 0
b0 1
b000000000000 2
b0 3
b1 4
b00000000000000000000000000000000 5
b11111111111111111111111100111001 6
b0000000001 7
b00000000000000000000000000000000 8
b0000000000 9
b00000000000000000000000000000000 :
b00000000000000000000000000000000 ;
b00000000000000000000000000000000 <
b00000000000000000000000000000000 =
b00000000000000000000000000000000 >
b0 ?
b00000000000000000000000000000000 @
b00000000000000000000000000000000 A
b0 B
b0 C
#14
b00000000000000000000000000000000 !
b0 "
b00000000000000000000000000000000 #
b00000000000000000000000000000000 $
b00000000000000000000000000000000 %
b00000000000000000000000000000000 &
b00000000000000000000000000000000 '
b00000000000000000000000000000000 (
b00000000000000000000000000000000 )
b00000000000000000000000000000000 *
b11110000010000000000000000000000 +
b1 ,
b00000000000000000000000000000000 -
b0 .
b00000000000000000000000000000000 /
b01001000000000000000000000000000 0
b1 1
b000000000000 2
b0 3
b1 4
b00000000000000000000000000000000 5
b11111111111111111111111100111001 6
b0000000010 7
b00000000000000000000000000000000 8
b0000000000 9
b00000000000000000000000000000000 :
b00000000000000000000000000000000 ;
b00000000000000000000000000000000 <
b00000000000000000000000000000000 =
b00000000000000000000000000000000 >
b1 ?
b00000000000000000000000000000000 @
b00000000000000000000000000000000 A
b0 B
b0 C
#15
b00000000000000000000000000000000 !
b0 "
b00000000000000000000000000000000 #
b00000000000000000000000000000000 $
b00000000000000000000000000000000 %
b00000000000000000000000000000000 &
b00000000000000000000000000000000 '
b00000000000000000000000000000000 (
b00000000000000000000000000000000 )
b00000000000000000000000000000000 *
b11110000010000000000000000000000 +
b1 ,
b00000000000000000000000000000000 -
b0 .
b00000000000000000000000000000000 /
b00000000000000000000000000000000 0
b0 1
b000000000000 2
b0 3
b1 4
b00000000000000000000000000000000 5
b11111111111111111111111100111001 6
b0000000011 7
b00000000000000000000000000000000 8
b0000000000 9
b00000000000000000000000000000000 :
b00000000000000000000000000000000 ;
b00000000000000000000000000000000 <
b00000000000000000000000000000000 =
b00000000000000000000000000000000 >
b0 ?
b00000000000000000000000000000000 @
b00000000000000000000000000000000 A
b0 B
b1 C
#16
b00000000000000000000000000000000 !
b0 "
b00000000000000000000000000000000 #
b00000000000000000000000000000000 $
b00000000000000000000000000000000 %
b00000000000000000000000000000000 &
b00000000000000000000000000000000 '
b00000000000000000000000000000000 (
b00000000000000000000000000000000 )
b00000000000000000000000000000000 *
b11110000010000000000000000000000 +
b1 ,
b00000000000000000000000000000000 -
b0 .
b00000000000000000000000000000000 /
b00000000000000000000000000000000 0
b0 1
b000000000000 2
b0 3
b1 4
b00000000000000000000000000000000 5
b11111111111111111111111100111001 6
b0000000100 7
b00000000000000000000000000000000 8
b0000000000 9
b00000000000000000000000000000000 :
b00000000000000000000000000000000 ;
b00000000000000000000000000000000 <
b00000000000000000000000000000000 =
b00000000000000000000000000000000 >
b0 ?
b00000000000000000000000000000000 @
b00000000000000000000000000000000 A
b0 B
b1 C
#17
b00000000000000000000000000000000 !
b0 "
b00000000000000000000000000000000 #
b00000000000000000000000000000000 $
b00000000000000000000000000000000 %
b00000000000000000000000000000000 &
b00000000000000000000000000000000 '
b00000000000000000000000000000000 (
b00000000000000000000000000000000 )
b00000000000000000000000000000000 *
b11110000010000000000000000000000 +
b1 ,
b00000000000000000000000000000000 -
b0 .
b00000000000000000000000000000000 /
b00000000000000000000000000000000 0
b0 1
b000000000000 2
b0 3
b1 4
b00000000000000000000000000000000 5
b11111111111111111111111100111001 6
b0000000101 7
b00000000000000000000000000000000 8
b0000000000 9
b00000000000000000000000000000000 :
b00000000000000000000000000000000 ;
b00000000000000000000000000000000 <
b00000000000000000000000000000000 =
b00000000000000000000000000000000 >
b0 ?
b00000000000000000000000000000000 @
b00000000000000000000000000000000 A
b0 B
b1 C
#18
b00000000000000000000000000000000 !
b0 "
b00000000000000000000000000000000 #
b00000000000000000000000000000000 $
b00000000000000000000000000000000 %
b00000000000000000000000000000000 &
b00000000000000000000000000000000 '
b00000000000000000000000000000000 (
b00000000000000000000000000000000 )
b00000000000000000000000000000000 *
b11110000010000000000000000000000 +
b1 ,
b00000000000000000000000000000000 -
b1 .
b00000000000000000000000000000000 /
b00000000000000000000000000000000 0
b0 1
b000000000000 2
b0 3
b1 4
b00000000000000000000000000000000 5
b11111111111111111111111100111001 6
b0000000110 7
b00000000000000000000000000000000 8
b0000000000 9
b00000000000000000000000000000000 :
b00000000000000000000000000000000 ;
b00000000000000000000000000000000 <
b00000000000000000000000000000000 =
b00000000000000000000000000000000 >
b0 ?
b00000000000000000000000000000000 @
b00000000000000000000000000000000 A
b1 B
b0 C
#19
b00000000000000000000000000000000 !
b0 "
b00000000000000000000000000000000 #
b00000000000000000000000000000000 $
b00000000000000000000000000000000 %
b00000000000000000000000000000000 &
b00000000000000000000000000000000 '
b00000000000000000000000000000000 (
b00000000000000000000000000000000 )
b00000000000000000000000000000000 *
b11110000010000000000000000000000 +
b1 ,
b00000000000000000000000000000000 -
b0 .
b00000000000000000000000000000000 /
b00000000000000000000000000000000 0
b0 1
b000000000000 2
b0 3
b1 4
b00000000000000000000000000000000 5
b11111111111111111111111100111001 6
b0000000111 7
b00000000000000000000000000000000 8
b0000000000 9
b00000000000000000000000000000000 :
b00000000000000000000000000000000 ;
b00000000000000000000000000000000 <
b00000000000000000000000000000000 =
b00000000000000000000000000000000 >
b0 ?
b00000000000000000000000000000000 @
b00000000000000000000000000000000 A
b0 B
b0 C
#20
b00000000000000000000000000000000 !
b0 "
b00000000000000000000000000000000 #
b00000000000000000000000000000000 $
b00000000000000000000000000000000 %
b00000000000000000000000000000000 &
b00000000000000000000000000000000 '
b00000000000000000000000000000000 (
b00000000000000000000000000000000 )
b00000000000000000000000000000000 *
b11110000010000000000000000000000 +
b1 ,
b00000000000000000000000000000000 -
b0 .
b00000000000000000000000000000000 /
b00000000000000000000000000000000 0
b0 1
b000000000000 2
b0 3
b1 4
b00000000000000000000000000000000 5
b11111111111111111111111100111001 6
b0000001000 7
b00000000000000000000000000000000 8
b0000000000 9
b00000000000000000000000000000000 :
b00000000000000000000000000000000 ;
b00000000000000000000000000000000 <
b00000000000000000000000000000000 =
b00000000000000000000000000000000 >
b0 ?
b00000000000000000000000000000000 @
b00000000000000000000000000000000 A
b0 B
b1 C
#21
b00000000000000000000000000000000 !
b0 "
b00000000000000000000000000000000 #
b00000000000000000000000000000000 $
b00000000000000000000000000000000 %
b00000000000000000000000000000000 &
b00000000000000000000000000000000 '
b00000000000000000000000000000000 (
b00000000000000000000000000000000 )
b00000000000000000000000000000000 *
b00000000000000000000000000000000 +
b0 ,
b00000000000000000000000000000000 -
b0 .
b00000000000000000000000000000000 /
b00000000000000000000000000000000 0
b0 1
b000000000000 2
b0 3
b1 4
b00000000000000000000000000000000 5
b11111111111111111111111100111001 6
b0000001001 7
b00000000000000000000000000000000 8
b0000000000 9
b00000000000000000000000000000000 :
b00000000000000000000000000000000 ;
b00000000000000000000000000000000 <
b00000000000000000000000000000000 =
b00000000000000000000000000000000 >
b0 ?
b00000000000000000000000000000000 @
b00000000000000000000000000000000 A
b0 B
b1 C
#22
b00000000000000000000000000000000 !
b0 "
b00000000000000000000000000000000 #
b00000000000000000000000000000000 $
b00000000000000000000000000000000 %
b00000000000000000000000000000000 &
b00000000000000000000000000000000 '
b00000000000000000000000000000000 (
b00000000000000000000000000000000 )
b00000000000000000000000000000000 *
b00000000000000000000000000000000 +
b0 ,
b00000000000000000000000000000000 -
b0 .
b00000000000000000000000000000000 /
b00000000000000000000000000000000 0
b0 1
b000000000000 2
b0 3
b1 4
b00000000000000000000000000000000 5
b11111111111111111111111100111000 6
b0000000000 7
b00000000000000000000000000000000 8
b0000000000 9
b00000000000000000000000000000000 :
b00000000000000000000000000000000 ;
b00000000000000000000000000000000 <
b00000000000000000000000000000000 =
b00000000000000000000000000000000 >
b0 ?
b00000000000000000000000000000000 @
b00000000000000000000000000000000 A
b0 B
b1 C
#23
b00000000000000000000000000000000 !
b1 "
b00000000000000000000000000000000 #
b00000000000000000000000000000000 $
b00000000000000000000000000000000 %
b00000000000000000000000000000000 &
b00000000000000000000000000000000 '
b00000000000000000000000000000000 (
b00000000000000000000000000000000 )
b00000000000000000000000000000001 *
b01100100100000000000001000000000 +
b0 ,
b00000000000000000000000000000000 -
b0 .
b00000000000000000000000000000000 /
b00000000000000000000000000000000 0
b0 1
b000000000000 2
b0 3
b1 4
b00000000000000000000000000000000 5
b11111111111111111111111100111000 6
b0000000001 7
b00000000000000000000000000000000 8
b0000000000 9
b00000000000000000000000000000000 :
b00000000000000000000000000000000 ;
b00000000000000000000000000000000 <
b00000000000000000000000000000000 =
b00000000000000000000000000000000 >
b0 ?
b00000000000000000000000000000000 @
b00000000000000000000000000000000 A
b0 B
b0 C
#24
b00000000000000000000000000000000 !
b0 "
b00000000000000000000000000000000 #
b00000000000000000000000000000001 $
b00000000000000000000000000000000 %
b00000000000000000000000000000000 &
b00000000000000000000000000000000 '
b00000000000000000000000000000000 (
b00000000000000000000000000000000 )
b00000000000000000000000000000000 *
b10010000000000000000000000000001 +
b0 ,
b00000000000000000000000000000000 -
b0 .
b00000000000000000000000000000000 /
b00000000000000000000000000000000 0
b0 1
b000000000000 2
b0 3
b1 4
b00000000000000000000000000000000 5
b11111111111111111111111100111000 6
b0000000010 7
b00000000000000000000000000000000 8
b0000000000 9
b00000000000000000000000000000000 :
b00000000000000000000000000000000 ;
b00000000000000000000000000000000 <
b00000000000000000000000000000000 =
b00000000000000000000000000000000 >
b0 ?
b00000000000000000000000000000000 @
b00000000000000000000000000000000 A
b0 B
b0 C
#25
b00000000000000000000000000000000 !
b0 "
b00000000000000000000000000000000 #
b00000000000000000000000000000001 $
b00000000000000000000000000000000 %
b00000000000000000000000000000000 &
b00000000000000000000000000000000 '
b00000000000000000000000000000000 (
b00000000000000000000000000000000 )
b00000000000000000000000000000000 *
b00000000000000000000000000000000 +
b0 ,
b00000000000000000000000000000000 -
b0 .
b00000000000000000000000000000000 /
b00000000000000000000000000000000 0
b0 1
b000000000000 2
b0 3
b1 4
b00000000000000000000000000000000 5
b11111111111111111111111100111000 6
b0000000011 7
b00000000000000000000000000000000 8
b0000000000 9
b00000000000000000000000000000000 :
b00000000000000000000000000000000 ;
b00000000000000000000000000000000 <
b00000000000000000000000000000000 =
b00000000000000000000000000000000 >
b0 ?
b00000000000000000000000000000000 @
b00000000000000000000000000000000 A
b0 B
b0 C
#26
b00000000000000000000000000000000 !
b1 "
b00000000000000000000000000000000 #
b00000000000000000000000000000001 $
b00000000000000000000000000000000 %
b00000000000000000000000000000000 &
b00000000000000000000000000000000 '
b00000000000000000000000000000000 (
b00000000000000000000000000000000 )
b00000000000000000000000000000001 *
b00110010100000000000000000000000 +
b1 ,
b00000000000000000000000000000000 -
b0 .
b00000000000000000000000000000000 /
b00000000000000000000000000000000 0
b0 1
b000000000000 2
b0 3
b1 4
b00000000000000000000000000000000 5
b11111111111111111111111100111000 6
b0000000100 7
b00000000000000000000000000000000 8
b0000000000 9
b00000000000000000000000000000000 :
b00000000000000000000000000000000 ;
b00000000000000000000000000000000 <
b00000000000000000000000000000000 =
b00000000000000000000000000000000 >
b0 ?
b00000000000000000000000000000000 @
b00000000000000000000000000000000 A
b0 B
b0 C
#27
b00000000000000000000000000000000 !
b1 "
b00000000000000000000000000000001 #
b00000000000000000000000000000001 $
b00000000000000000000000000000000 %
b00000000000000000000000000000000 &
b00000000000000000000000000000000 '
b00000000000000000000000000000000 (
b00000000000000000000000000000000 )
b00000000000000000000000000000001 *
b00110010100000000000000000000000 +
b1 ,
b00000000000000000000000000000000 -
b0 .
b00000000000000000000000000000000 /
b00000000000000000000000000000000 0
b0 1
b000000000000 2
b0 3
b1 4
b00000000000000000000000000000000 5
b11111111111111111111111100111000 6
b0000000101 7
b00000000000000000000000000000000 8
b0000000000 9
b00000000000000000000000000000000 :
b00000000000000000000000000000000 ;
b00000000000000000000000000000000 <
b00000000000000000000000000000000 =
b00000000000000000000000000000000 >
b0 ?
b00000000000000000000000000000000 @
b00000000000000000000000000000000 A
b0 B
b0 C
#28
b00000000000000000000000000000000 !
b1 "
b00000000000000000000000000000001 #
b00000000000000000000000000000001 $
b00000000000000000000000000000000 %
b00000000000000000000000000000000 &
b00000000000000000000000000000000 '
b00000000000000000000000000000000 (
b00000000000000000000000000000000 )
b00000000000000000000000000000001 *
b00110010100000000000000000000000 +
b1 ,
b00000000000000000000000000000000 -
b0 .
b00000000000000000000000000000000 /
b00000000000000000000000000000000 0
b0 1
b000000000000 2
b0 3
b1 4
b00000000000000000000000000000000 5
b11111111111111111111111100111000 6
b0000000110 7
b00000000000000000000000000000000 8
b0000000000 9
b00000000000000000000000000000000 :
b00000000000000000000000000000000 ;
b00000000000000000000000000000000 <
b00000000000000000000000000000000 =
b00000000000000000000000000000000 >
b0 ?
b00000000000000000000000000000000 @
b00000000000000000000000000000000 A
b0 B
b0 C
#29
b00000000000000000000000000000000 !
b1 "
b00000000000000000000000000000001 #
b00000000000000000000000000000001 $
b00000000000000000000000000000000 %
b00000000000000000000000000000000 &
b00000000000000000000000000000000 '
b00000000000000000000000000000000 (
b00000000000000000000000000000000 )
b00000000000000000000000000000001 *
b00110010100000000000000000000000 +
b1 ,
b00000000000000000000000000000000 -
b0 .
b00000000000000000000000000000000 /
b00000000000000000000000000000000 0
b0 1
b000000000001 2
b0 3
b1 4
b00000000000000000000000000000000 5
b11111111111111111111111100111000 6
b0000000111 7
b00000000000000000000000000000000 8
b0000000000 9
b00000000000000000000000000000000 :
b00000000000000000000000000000000 ;
b00000000000000000000000000000000 <
b00000000000000000000000000000000 =
b00000000000000000000000000000000 >
b0 ?
b00000000000000000000000000000000 @
b00000000000000000000000000000000 A
b0 B
b0 C
#30
b00000000000000000000000000000000 !
b1 "
b00000000000000000000000000000001 #
b00000000000000000000000000000001 $
b00000000000000000000000000000000 %
b00000000000000000000000000000000 &
b00000000000000000000000000000000 '
b00000000000000000000000000000000 (
b00000000000000000000000000000000 )
b00000000000000000000000000000001 *
b00110010100000000000000000000000 +
b1 ,
b00000000000000000000000000000000 -
b0 .
b00000000000000000000000000000000 /
b00000000000000000000000000000000 0
b0 1
b000000000001 2
b0 3
b1 4
b00000000000000000000000000000000 5
b11111111111111111111111100111000 6
b0000001000 7
b00000000000000000000000000000000 8
b0000000000 9
b00000000000000000000000000000000 :
b00000000000000000000000000000000 ;
b00000000000000000000000000000000 <
b00000000000000000000000000000000 =
b00000000000000000000000000000000 >
b0 ?
b00000000000000000000000000000000 @
b00000000000000000000000000000000 A
b0 B
b0 C
#31
b00000000000000000000000000000000 !
b1 "
b00000000000000000000000000000001 #
b00000000000000000000000000000001 $
b00000000000000000000000000000000 %
b00000000000000000000000000000000 &
b00000000000000000000000000000000 '
b00000000000000000000000000000000 (
b00000000000000000000000000000000 )
b00000000000000000000000000000001 *
b00110010100000000000000000000000 +
b1 ,
b00000000000000000000000000000000 -
b0 .
b00000000000000000000000000000000 /
b00000000000000000000000000000000 0
b0 1
b000000000001 2
b0 3
b1 4
b00000000000000000000000000000000 5
b11111111111111111111111100111000 6
b0000001001 7
b00000000000000000000000000000000 8
b0000000000 9
b00000000000000000000000000000000 :
b00000000000000000000000000000000 ;
b00000000000000000000000000000000 <
b00000000000000000000000000000000 =
b00000000000000000000000000000000 >
b0 ?
b00000000000000000000000000000000 @
b00000000000000000000000000000000 A
b0 B
b0 C
#32
b00000000000000000000000000000000 !
b1 "
b00000000000000000000000000000001 #
b00000000000000000000000000000001 $
b00000000000000000000000000000000 %
b00000000000000000000000000000000 &
b00000000000000000000000000000000 '
b00000000000000000000000000000000 (
b00000000000000000000000000000000 )
b00000000000000000000000000000001 *
b00110010100000000000000000000000 +
b1 ,
b00000000000000000000000000000000 -
b0 .
b00000000000000000000000000000000 /
b00000000000000000000000000000000 0
b0 1
b000000000001 2
b0 3
b1 4
b00000000000000000000000000000000 5
b11111111111111111111111100110110 6
b0000000000 7
b00000000000000000000000000000000 8
b0000000000 9
b00000000000000000000000000000000 :
b00000000000000000000000000000000 ;
b00000000000000000000000000000000 <
b00000000000000000000000000000000 =
b00000000000000000000000000000000 >
b0 ?
b00000000000000000000000000000000 @
b00000000000000000000000000000000 A
b0 B
b0 C
#33
b00000000000000000000000000000000 !
b1 "
b00000000000000000000000000000001 #
b00000000000000000000000000000001 $
b00000000000000000000000000000000 %
b00000000000000000000000000000000 &
b00000000000000000000000000000000 '
b00000000000000000000000000000000 (
b00000000000000000000000000000000 )
b00000000000000000000000000000001 *
b00110010100000000000000000000000 +
b1 ,
b00000000000000000000000000000000 -
b0 .
b00000000000000000000000000000000 /
b00000000000000000000000000000000 0
b0 1
b000000000001 2
b0 3
b1 4
b00000000000000000000000000000000 5
b11111111111111111111111100110110 6
b0000000001 7
b00000000000000000000000000000000 8
b0000000000 9
b00000000000000000000000000000000 :
b00000000000000000000000000000000 ;
b00000000000000000000000000000000 <
b00000000000000000000000000000000 =
b00000000000000000000000000000000 >
b0 ?
b00000000000000000000000000000000 @
b00000000000000000000000000000000 A
b0 B
b0 C
#34
b00000000000000000000000000000000 !
b1 "
b00000000000000000000000000000001 #
b00000000000000000000000000000001 $
b00000000000000000000000000000000 %
b00000000000000000000000000000000 &
b00000000000000000000000000000000 '
b00000000000000000000000000000000 (
b00000000000000000000000000000000 )
b00000000000000000000000000000001 *
b00110010100000000000000000000000 +
b1 ,
b00000000000000000000000000000000 -
b0 .
b00000000000000000000000000000000 /
b00000000000000000000000000000000 0
b0 1
b000000000000 2
b0 3
b1 4
b00000000000000000000000000000000 5
b11111111111111111111111100110110 6
b0000000010 7
b00000000000000000000000000000000 8
b0000000000 9
b00000000000000000000000000000000 :
b00000000000000000000000000000000 ;
b00000000000000000000000000000000 <
b00000000000000000000000000000000 =
b00000000000000000000000000000000 >
b0 ?
b00000000000000000000000000000000 @
b00000000000000000000000000000000 A
b0 B
b0 C
